﻿{
    "category": "自然生成",
    "blocks": [
        {
            "file_name": "block_jiyang.png",
            "name": "基岩",
            "material": " ",
            "use": "不可破壞的方塊",
            "detail": "基岩(Bedrock)是一種在生存模式裡不可破壞的方塊.\n\n基岩不能被任何工具破壞,它也不能被活塞推動或被正常遊戲的爆炸破壞.\n\n基岩只能通過創造模式物品欄或使用命令獲得.\n\n自然生成:\n基岩生成在地圖最底部的五層.但一般在最底部的第四層就全部由沒有任何間隙存在的基岩組成,這使得最底部的第五層無法到達.\n\n下界中底部和頂部四層都存在基岩.\n\n在下界的頂部,基岩防止玩家到達高度127以上,它也能在主機版下界的邊界找到.\n\n無論使用了什麼種子碼,在主世界和下界的基岩總以相同模式生成.\n\n在末路之地,有一個由基岩構成的終末之池,\n\n末影水晶的基座同樣也由基岩材質構成,且不會因為末影水晶的破壞而消失.\n\n在末影龍死後會生成由基岩構成的末地折躍門.\n\n用途:\n基岩的主要用途是作為一個不能破壞的固體方塊,它也會防止生物生成,\n\n它也是唯一信標的光束能穿透的固體方塊.\n\n另外,在末路之地的基岩上點燃火,\n與地獄岩類似,火不會熄滅.\n\n你知道嗎?\n在主機版,只有在下界最頂層自然生成的基岩是不可破壞的.\n\n在極罕見的情況下,會在基岩上發現鑲嵌于其上的礦石.\n\n在Minecraft 4k,地圖頂部的基岩沒有材質.\n\n要塞有可能在基岩層生成,並覆蓋掉原有的基岩.\n\n基岩的材質與石頭相同,但基岩的材質更舊,對比度更高.\n\n數據值\nDEC: 07 HEX: 7 BIN: 111\n名稱\nbedrock"
        },
        {
            "file_name": "block_niantukuai.png",
            "name": "粘土塊",
            "material": " ",
            "use": "在水下的方塊",
            "detail": "粘土塊(Clay Block)是一種能在水下找到的方塊.\n\n粘土塊可被任何工具挖取,不過用鍬是最快的.\n\n挖掘一個粘土塊會掉出4個粘土球.\n\n使用有精準採集附魔的工具挖掘可獲得粘土塊自身.\n\n在忽略相鄰的方塊的情況下,一片淺而圓的粘土塊通常在河流或湖泊的底部被找到,\n\n粘土塊也經常在沼澤被找到.\n\n可用於燒煉陶瓦.\n\n數據值\nDEC: 82 HEX: 52 BIN: 1010010\n名稱\nclay"
        },
        {
            "file_name": "block_meikuangshi.png",
            "name": "煤礦石",
            "material": " ",
            "use": "會掉落煤的礦石",
            "detail": "煤礦石(Coal Ore)是一個挖掘時會掉落煤的礦石方塊.\n\n煤礦石方塊可用帶有精準採集附魔的鎬採集(而不是掉落煤).\n\n和多數礦石一樣,\n煤礦石自然生成在石頭方塊間的脈絡裡.\n\n它在整個地圖中很常見,几乎可以在任何高地、懸崖面上、地下洞穴以及海底,直到基岩的地方找到.\n\n平均每區塊有142.6個煤礦石.\n它也是唯一一種在海平面以上出現的礦石；\n\n煤礦石的數量占所有石頭數量的1%,\n且與海拔高度無關.\n\n不同海拔煤礦石堆的數量差異很大——在山頂通常有5個煤礦石,而地底的礦石堆至少有10個,而數量範圍可達到64個.\n\n煤礦石也可以作為化石的一部分生成.\n\n用任何的鎬開採煤礦石都會掉落1個煤以及0-2點經驗.使用帶有時運附魔的鎬每等級會增加1個煤掉落量.當等級為3時最高為4個.\n\n燒煉煤炭\n\n註:燒煉礦石比開採礦石更低效率,因為它需要燃料來獲得煤,而煤主要從煤礦石那裡獲得的.\n\n數據值\nDEC: 16 HEX: 10 BIN: 10000\n名稱\ncoal_ore"
        },
        {
            "file_name": "block_zhuangshikuangshi.png",
            "name": "鑽石礦石",
            "material": " ",
            "use": "最難找到的幾種方塊之一",
            "detail": "鑽石礦石(Diamond Ore)是遊戲中最珍貴、最難找到的幾種方塊之一.\n\n鑽石礦石方塊(而不是鑽石本身)能被附有精準採集魔咒的鐵鎬或鑽石鎬採集.\n\n自然生成:\n鑽石礦石只會出現在主世界高度16或以下的地方,\n並礦脈大小通常為3-8個方塊,\n每個區塊裡有1個鑽石礦脈.\n\n礦脈或礦脈的一部分可能會被結構覆蓋,例如洞穴,以致該區塊沒有任何鑽石.\n\n而且,因為區塊生成的方法,\n'屬於'一個區塊的鑽石礦脈可能會生成在相鄰的區塊,導致有些區塊出現2個或以上的鑽石礦脈,有些區塊沒有鑽石礦脈.\n\n平均每個區塊大小的區域有3.097個鑽石礦石,最多鑽石礦石出現在高度5-12,因為熔岩湖,在這個範圍的中間(大約高度9)的鑽石礦石會稍微減少.\n\n開採策略:\n有很多策略可以幫助你尋找鑽石.\n\n開採鑽石前最好掏空周圍的方塊,這樣可以確保鑽石不會掉進熔岩裡.\n\n冶煉鑽石:\n\n當使用鐵鎬或鑽石鎬挖掘鑽石礦石,它掉落一顆鑽石和3-7經驗值.\n\n使用時運附魔的鎬挖掘會每等級增加1可能的鑽石數量,\n時運III最多會掉落4顆鑽石​​.\n\n數據值\nDEC: 56 HEX: 38 BIN: 111000\n名稱\ndiamond_ore"
        },{
            "file_name": "wuping_lvbaoshikuangshi.png",
            "name": "綠寶石礦石",
            "material": " ",
            "use": "遊戲中最稀有的礦石方塊之一",
            "detail": "綠寶石礦石(Emerald ore)是遊戲中最稀有的礦石方塊,開採後會掉落綠寶石.\n\n使用帶有精準採集附魔的鑽石鎬或鐵鎬開採會掉落綠寶石礦石自身(而不是掉落綠寶石).\n\n自然生成:\n綠寶石礦石只在峭壁生物群系(實際上該生物群系綠寶石礦石區塊的數量比鑽石礦石區塊的數量還要多)生成.\n\n由於地形生成算法的規則,綠寶石礦石可能在鄰近生物群系的很短的一段距離找到,但總是與峭壁生物群系處于同一區塊.地形生成算法嘗試在每個區塊的4層至32層之間生成3-8次綠寶石礦石,意味着其數量最多可以和金礦石的數量一樣.\n\n每個世界每個區塊大約有0.2個綠寶石礦石.它只生成在某些地點,否則就會生成石頭——因此一個區塊裡綠寶石的數量可能只有0-2個綠寶石.綠寶石礦石並非以礦脈形式分佈,而是零散的分佈.它可以比金礦石更常見,而金礦石和綠寶石礦石都有一個類似的範圍.\n\n使用鐵鎬或更好的鎬開採綠寶石礦石時會掉落1個綠寶石和3-7點經驗.使用帶有時運附魔的鎬將會每等級增加1個綠寶石掉落量(等級 III 時每個礦石掉落1-4個綠寶石).如果使用其它工具開採,它只會掉落5-7點經驗.\n\n你知道嗎?\n綠寶石被用作與村民進行交易的貨幣.它們也可以通過交易特定的物品來獲得.\n\n雖然綠寶石礦石比鑽石礦石更加稀有,在峭壁生物群系中它卻比鑽石礦石更容易發現,這是因為它是分散分佈的.\n\n在攜帶版,綠寶石礦石可用石鎬開採.\n\n有可能2個綠寶石礦石會挨在一起,然而,這非常罕見.\n\n數據值\nDEC: 129 HEX: 81 BIN: 10000001\n名稱\nemerald_ore"
        },
        {
            "file_name": "block_modishi.png",
            "name": "末地石",
            "material": " ",
            "use": "出現在末路之地",
            "detail": "末地石(End Stone)是出現在末路之地,也是末路之地維度的多數組成部分.\n\n末地石必須使用鎬來開採,否則不會掉落任何東西.\n\n末地石只能在末路之地找到,它是末路之地的島嶼組成部分.島嶼上末地石的數量是有限的.\n\n在電腦版,末路之地裡也會生成附加島嶼,製造出接近無限(但不可再生)數量的末地石.\n\n在電腦版,在末影龍重新生成時,會替換在返回傳送門的角落下面的16個末地石,末影龍死亡後會再次變回.\n因為末影龍可再生,這讓末地石也變成了可再生資源.\n\n末地石的爆炸抗性是45,是原始石頭爆炸抗性的1.5倍.它既不能被末影人撿起來,也不能被末影龍摧毀.\n\n可以合成末地石磚\n\n數據值\nDEC: 121 HEX: 79 BIN: 1111001\n名稱\nend_stone"
        },
        {
            "file_name": "block_yingshi.png",
            "name": "熒石 (螢石)",
            "material": " ",
            "use": "出現在下界的發光方塊",
            "detail": "熒石(Glowstone)是出現在下界的發光方塊.\n\n當不用任何工具進行開採或使用任何不帶有精準採集附魔的工具開採熒石時,會掉落2-4個熒石粉\n使用帶有時運附魔的工具掉落會更多(但是從來都不會掉落4個以上).\n\n熒石只自然生成在下界,像珊瑚叢那樣生成在地獄岩的下方.\n\n牧師村民會以1個綠寶石的價格出售1-3個熒石,作為它們的第三級交易.\n\n熒石會發出亮度為15級的光,這是在遊戲裡光照等級最高的光.它們發出的光與海晶燈、南瓜燈、紅石燈和信標發出的光是同一亮度等級.\n\n熒石可以充能上面的方塊,但下面的不行.紅石燈A會被充能,因為信號會沿熒石向上傳遞.紅石燈B不會被充能,因為信號不能沿著熒石向下傳遞.\n\n當在一個熒石上放置紅石時,熒石會變成一個透明方塊,信號可以從一個方塊通到另外一個對角.\n在熒石下方的紅石綫即使與熒石上的紅色綫連在一起,信號也不會傳遞到熒石下方的紅石綫.\n這讓熒石變成了一個垂直的二極管,可用於紅石電路中的邏輯門設計以及空間節約型瞬間垂直方向紅石.\n\n注意,上下顛倒的台階也可用於相同目的,且其更容易被獲得.\n\n可以合成紅石燈\n\n你知道嗎?\n熒石被活塞推動時會變成方塊實體,因此熒石會暫時停止發光.\n\n罕見地,在天花板生成的非常非常低的時候(空隙僅2-3格),生成的熒石會與地面接觸.\n\n當熒石被放置在離地面9格或以上的地方時(超出熒石的照明範圍),熒石會投下一個陰影,雖然它們是發光方塊.\n\n當你破壞熒石時,其音效與破壞玻璃時的音效相同.\n\n數據值\nDEC: 89 HEX: 59 BIN: 1011001\n名稱\nglowstone"
        },
        {
            "file_name": "block_jingkuangshi.png",
            "name": "金礦石",
            "material": " ",
            "use": "最稀有的礦石方塊之一",
            "detail": "金礦石(Gold ore)是可在地下找到的最稀有的礦石方塊之一.\n\n使用鐵鎬或鑽石鎬開採金礦石會掉落金礦石物品.如果使用其它工具開採,則不掉落任何東西.\n\n通常生成的金礦石礦脈的大小約4-8個方塊(有時候如果2個礦脈生成在一起則多達16個,如果被結構占用了金礦石原本所在的空間,則至少有1個.)\n\n它僅在主世界32層以下的位置出現.在2-29層,金礦石在地下出現的幾率為0.1437%(比鐵礦石稀有5倍).平均每區塊有8.2個金礦石.\n\n在平頂山生物群系,額外20個礦脈會在32至79層生成.\n\n數據值\nDEC: 14 HEX: E BIN: 1110\n名稱\ngold_ore"
        },
        {
            "file_name": "block_caofangkuai.png",
            "name": "草方塊",
            "material": " ",
            "use": "只能通過精準採集附魔來得到",
            "detail": "草方塊(Grass Block)是一種在主世界自然生成的方塊.\n\n草方塊只能通過精準採集附魔來得到,否則,只會掉落泥土.\n\n草方塊自然生成在大部分主世界的生物群系.\n\n末影人可能會拾取草方塊.末影人被殺死的時候會掉落他們手中拾取的方塊,為玩家提供了一個不使用精準採集獲得草方塊的方式.\n\n草方塊只有在地圖生成時才會自動生成.之後,它們只能擴散到相鄰的泥土上.草方塊在沒有玩家時擴散取決於日夜交替.\n\n要令泥土接受附近草方塊的擴散,下列的要求必須達到:\n 被草擴散的泥土必須在以草方塊為第二層中心的3×3×5範圍內.\n 草方塊的上方必須有亮度9或以上.\n 泥土的上方必須至少有亮度4.\n 泥土不能被降低2級或以上的亮度的方塊覆蓋.\n\n降低亮度的方塊包括任何不透明方塊,和熔岩,水,冰和一些半透明方塊,如台階和樓梯.\n草可以在任何其他的透明的方塊下生長,如玻璃,柵欄,火把,或活塞.草方塊的草會直接跳到相鄰的泥土而不會被中間的空隙或方塊影響.\n草在隨機的時間間隔內傳播,並有平等的機會傳播到任何合適範圍內的土塊.\n因為草可以傳播至低達3級的泥土,所以在山上它們向下傳播比向上傳播快得多.\n\n如果草方塊被任何不透明的方塊覆蓋並降低草方塊上面的亮度至4或以下,或周圍也是黑暗的時候,草方塊將會死亡並在隨機的時間後變為泥土.\n透明的方塊不會直接殺死草方塊,但在周圍也是黑暗的時候,草方塊會死亡.\n\n用鋤犁草方塊後會將其轉換為耕地.\n\n當羊吃掉草方塊,它也會變為泥土.\n\n用鍬右擊草方塊後會將其轉換為草徑.\n\n草方塊的色彩受它們所在的生物群系影響,草方塊會使用該位置的色彩而不會理會它怎樣被放置或它的源頭.\n\n在草方塊上使用骨粉將生出草叢和花.\n\n被動型動物往往會走向草或光線,但它們會忽略草上的光線,並喜歡任何低於10級的亮度水平.\n\n羊會吃掉草方塊,使草方塊變為泥土並使它們的羊毛重新生長.\n\n被動型生物會偶爾在亮度9級或以上的草方塊上生成.這是相當罕見的,並需要較少動物在附近.大多數動物是在地圖生成時生成.\n\n你知道嗎?\n草方塊和泥土之間彼此的變化是由非常常見的方塊更新導致的.\n\n草方塊已成為Minecraft.net,Minecraft.exe和Minecraft.app的快捷表徵圖.\n\n在MineCon的禮包、草以及爬行者、鑽石和玩家都以可摺疊裝飾送出.\n\n末影人可以撿起並隨處放置草方塊.\n\n草方塊的ID 名稱為minecraft:grass.\n草方塊也有一個在將來版本中替代方塊數據功能的方塊狀態(儘管草方塊目前並不使用它的方塊數據)\n\n數據值\nDEC: 02 HEX: 2 BIN: 10\n名稱\ngrass"
        },
        {
            "file_name": "block_shashuo.png",
            "name": "沙礫",
            "material": " ",
            "use": "一種受重力影響的方塊",
            "detail": "沙礫(Gravel)是一種受重力影響的方塊.\n\n沙礫可使用任何工具摧毀,但用鍬是最快的.當被破壞後,沙礫有10%的幾率掉落燧石.\n可以使用附魔來控制燧石的掉落.精準採集會移除掉落燧石的幾率；時運 I 的掉落燧石幾率為 14%,II 為 25%,III 為 100%.\n\n如果沙礫掉在一個不完全方塊上面,它只會掉落沙礫物品.\n\n沙礫在主世界第1至111層以大塊礦脈的形態生成,一個礦脈最多有33塊沙礫.沙礫的生成幾率約等於石頭的3.29%.\n\n在下界, Y=63 到 Y=65 之間會大片地生成1格厚的沙礫層.沙礫可能會懸空生成,這種沙礫在接受更新時會掉落.\n\n沙礫會在河流和湖泊附近出現；海底通常會鋪着沙礫層.\n\n由於主機版的世界選項界面提供重置下界的選項,沙礫在主機版中是可再生的.\n\n當沙礫下面沒有方塊的時候,它就會一直掉落,直到下面有方塊.當沙礫受到重力影響掉落時,它會顯示一個平滑的掉落動畫.\n\n如果沙礫在掉落的過程中砸到生物或玩家,那麼就會對生物或玩家造成窒息傷害,除非沙礫被摧毀、走出方塊或者死亡.\n如果掉落的沙礫佔據了非固體方塊的空間,(例如火把、台階、鐵軌和紅石)或靈魂沙,沙礫就會掉落成為一個物品.\n沙礫掉落到蜘蛛網的時候速度會變得很緩慢,直到沙礫掉出蜘蛛網或已經着陸(沙礫會掉落為物品).\n\n把沙礫放置在非固體方塊上時,沙礫並不會掉落.\n\n可以合成:\n砂土\n對應的混凝土粉末\n\n造箭匠會以10塊沙礫和1個綠寶石的價格出售6-10個燧石.\n\n你知道嗎?\n掉落的沙礫會被TNT炸飛.與此類似的還有(掉落的)沙子,鐵砧,龍蛋,紅沙,混凝土粉末.\n\n如果玩家站在一組沙子上面,而這組沙子剛好掉落到非固體方塊上面,玩家將會以很快的速度掉落,由此造成的掉落傷害甚至會造成玩家死亡.\n\n沙礫通常會掉落在一個洞穴裡造成一個假的'死衚衕'.因此,如果玩家在挖礦時遇到沙礫而沒有其它路線的話,嘗試移除沙礫,可能會找到其它的走廊.\n\n因為主機版可以重置下界,因此沙礫在下界會被認為是可再生資源,但這樣並不會認為是作弊.\n\n數據值\nDEC: 13 HEX: D BIN: 1101\n名稱\ngravel\n\n\n掉落中的方塊:\n內部ID\nPC: 21\nPE: 66\n網絡ID\nPC: 70\n實體ID\nPC: falling_block\nPE:fallingblock"
        },
        {
            "file_name": "block_tiekuangshi.png",
            "name": "鐵礦石",
            "material": " ",
            "use": "用於製造工具和護甲的最常見的礦物",
            "detail": "鐵礦石(Iron ore)是一種可以在地下找到的礦石方塊.它是可被用於製造工具和護甲的最常見的礦物.\n\n如果被石鎬或更好的鎬開採,會掉落鐵礦石自身.如果使用其它工具開採,則不會掉落任何東西.\n\n鐵礦石僅出現在基岩到稍微高於海平面的位置(1-63層).然而,多數的鐵礦石都在較低的層數.每區塊平均有77個鐵礦石.\n\n鐵礦石的礦脈大小是變化的,但最常見的是2×2×2的礦脈.鐵礦石礦脈通常以4-10個鐵礦石組成,除非泥土、沙礫、洞穴或其它礦石占用了它的空間.每個在礦脈裡的方塊都是鐵礦石,否則都是石頭,而鐵礦石有幾率會替代石頭,這個幾率是隨機的.\n\n數據值\nDEC: 15 HEX: F BIN: 1111\n名稱\niron_ore"
        },
        {
            "file_name": "block_qingjingshikuangshi.png",
            "name": "青金石礦石",
            "material": " ",
            "use": "開採後可獲得青金石",
            "detail": "青金石礦石(Lapis lazuli ore)是開採後可獲得青金石染料的礦石方塊.\n\n使用石鎬或更好的鎬開採才能獲得掉落物.如果使用帶有精準採集附魔的鎬開採,會掉落青金石礦石自身,否則會掉落4-8個青金石和2-5點經驗.\n\n當使用帶有時運附魔的鎬開採時,有幾率掉落物會×2以及依據附魔等級+1,最多是在等級 III ,會掉落2-4個(最多可掉落32個青金石).\n\n青金石礦石可在31層以下的地方找到.青金石礦石分佈最密的位置是13-16層.\n在這些位置裡,青金石礦石的數量占所有方塊數量的0.083%(石頭是0.1013%).\n越遠離這些位置,青金石礦石的密度越呈線性下降.青金石礦石比鑽石礦石常見1.1倍,每區塊平均有3.43個青金石礦石.\n\n青金石礦石的主要用途是開採它來獲得其掉落物青金石染料.\n\n你知道嗎?\n青金石是基于真正的石頭命名的,它歷來是被用來製作染料的珍貴而罕見的石頭.\n\n數據值\nDEC: 21 HEX: 15 BIN: 10101\n名稱\nlapis_ore"
        },
        {
            "file_name": "block_fubing.png",
            "name": "浮冰",
            "material": " ",
            "use": "可在罕見的冰刺平原生物群系中找到",
            "detail": "浮冰(Packed Ice)是由冰組成的固體方塊.\n\n可使用任何帶有精準採集附魔的工具來獲得浮冰.如果不是使用帶有精準採集附魔的工具開採浮冰的,則不會掉落任何東西.\n\n浮冰可在罕見的冰刺平原生物群系中找到.\n\n浮冰有些滑,因此會讓實體和物品也會滑動.在水流下面放浮冰來增加速度也是允許的.\n\n當一個非完整方塊放在浮冰上面時,方塊上面會像覆蓋了雪一般的滑.\n然而,如果在浮冰上面放置靈魂沙,行動的速度只會變得更慢,而不是變得很快.\n\n不像普通的冰,生物可以生成在浮冰上.這使得基于被推動的怪物可能滑出冰塊這一點設計的緊湊型怪物農場得以實現\n\n浮冰是一個完全的固體方塊,因此可以在浮冰的上面放置任何物品.\n\n不像普通的冰,浮冰永遠不會融化.\n\n數據值\nDEC: 174 HEX: AE BIN: 10101110\n名稱\npacked_ice"
        },
        {
            "file_name": "block_rongyang.gif",
            "name": "熔岩",
            "material": " ",
            "use": "可被用來充當光源和武器和燃料",
            "detail": "熔岩(Lava)是一種流體方塊,它可被用來充當光源和武器.\n\n不能獲取物品形式的熔岩,但可以用桶裝.\n\n熔岩會替換在第1層到第10層的洞穴和峽谷的空氣方塊.這意味着如果你創建一個沒有任何洞穴和峽谷的自定義世界,熔岩就不會出現.\n熔岩不會替換在1-10層的廢棄礦井、地牢或要塞裡的空氣方塊.\n\n熔岩可以從熔岩源形成一條熔岩河的形式出現,從洞穴流進湖裡.\n熔岩源方塊可以在洞穴的一側、峽谷、廢棄礦井或地面上方的石頭懸崖上出現.\n\n熔岩也可以以湖的形式生成.它們可以在任何海拔高度,任何生物群系找到,可導致森林火災,有時候會在石頭、泥土或沙子的上方生成浮空的區塊.藤蔓和樹會偶爾生長在這些浮空的區塊上方(很小的島嶼有時候也會生成在熔岩湖的中心位置).\n熔岩湖有不同的大小和尺寸,在地下生成時還會在其上方創造一個小型空間,導致地面下面為空的,或者其上面浮空的物品會掉下來.\n\n在自定義世界裡,當設置生成熔岩海的值為 yes 時才會生成熔岩.\n\n可在村莊裡鐵匠的屋子裡找到2格熔岩.\n\n在下界,熔岩非常常見,它出現的頻率比水在主世界出現的頻率還要高.第31層海平面處會出現熔岩海,熔岩海約占下界的總高度的1/4(因為63是主世界高度的1/4).它們最多可以向下延伸22層.\n熔岩也會在地獄岩裡以單個方塊的形式出現.在主機版,熔岩是可再生資源,因為你可以在世界選項中重置下界.\n\n熔岩也會自然生成在林地府邸.\n\n柵欄並不會被其上方的熔岩燒燬.\n\n多數實體在每接觸熔岩時半秒時會受到2顆紅心傷害,同時還會被火燒着.\n在實體/玩家接觸熔岩時,會立刻向火焰計時器添加 300 火焰刻.玩家每接觸熔岩1刻,那麼就會向計時器添加2個火焰刻.\n例如:在熔岩裡待10秒將會造成 700 個火焰刻(35秒),可導致玩家着火(初始值 300 + 400 火焰刻,其中200刻是在熔岩裡獲得的),或者更確切地說,當他們離開熔岩源時500火焰刻(25秒)他們就能着火.\n下界生物(它們對火免疫)和受到抗火藥水效果的玩家或生物都不會受到傷害.如果着火的實體接觸水或有雨落到它們身上,那麼火就會熄滅,但是熔岩仍然會繼續傷害它們.\n\nTNT、書架、葉子、地毯、羊毛、柵欄、煤炭塊、藤蔓、草、木頭、木板、木質台階和木質樓梯都是易燃方塊.\n如果易燃方塊靠近熔岩,那麼它們就會着火,儘管這個機制與火傳播機制不同.非易燃方塊不受該效果的影響,也不會傳播活動的火.\n\n從熔岩飛出來的'火苗'或'火球'只是純粹的裝飾,不會對造成火災或對實體造成傷害.當雨滴滴到熔岩時,黑色'火苗'顆粒出現的幾率會明顯地提高.\n\n下面列出了玩家可以在熔岩裡存活的時間,假定饑餓值是滿的:\n穿著全套無附魔的皮革護甲可存活3.5秒.\n穿著全套無附魔的金護甲可存活5秒.\n穿著全套無附魔的鏈甲可存活5.5秒.\n穿著全套無附魔的鐵護甲可存活6.5秒.\n穿著全套無附魔的鑽石護甲可存活14秒.\n\n火焰傳播:\n當靜止的熔岩源每接受1個方塊刻,遊戲將會隨機進行一次動作(每個可能都有1/3的幾率):\n\n從熔岩方塊上方9個方塊中選擇1個,如果這個方塊是空氣方塊,鄰近是易燃方塊,那麼就在那個空氣方塊放置火.\n和上面的一樣.然後如果被選擇的方塊不是固體,並且在這一刻沒有着火,那麼就在再從其上面的9個方塊選擇1個,如果這個方塊是空氣方塊,鄰近是易燃方塊,那麼就在那個空氣方塊放置火.\n第三次,從相同 Y 坐標,8個包圍着的方塊中隨機選取1個(包括熔岩方塊自身).如果被選擇的方塊是易燃方塊並且其頂部是空氣,那麼就在空氣那裡放置火.\n自從着火要依賴空氣方塊的時候,火把或熔岩自身都能防止一個易燃方塊着火.\n\n流動:\n熔岩從'源方塊'流出來.多數的流或'熔岩瀑布'都是從一個熔岩源方塊流出來的,但是熔岩湖(包括底下10層熔岩洪流)都完全由一個熔岩源方塊組成的.\n只有1個源方塊才能被桶採集.熔岩流動的速度比水慢得多,所以有時候即使是失去了源泉的熔岩卻仍然會徘徊很久.\n在主世界,熔岩可以從源方塊向任何方向流動3個方塊.熔岩在下界流動的速度比主世界的要快得多,流的更遠.\n\n流動的熔岩在流動時會摧毀以下的東西:樹苗、蜘蛛網、草、枯死的灌木、小麥、花、蘑菇、地上的雪(但雪塊對此免疫)、睡蓮、藤蔓、拉桿、按鈕,2種的火把、紅石綫、紅石中繼器以及鐵軌.\n甘蔗可以擋住熔岩,但會在熔岩摧毀其水源時消失.\n\n使用紅石綫,一個方塊的熔岩源能在給予能量時被重定向,因為這會導致其被重置併流向新的最近的低窪地區.該過程不可逆轉.\n這個重新計算的產生原因是紅石綫從關閉狀態被切換到開啟狀態.\n熔岩四周的其中一個方塊更新時,熔岩會重新計算流向,但也不會取消現在的流向.\n\n熔岩和水的互動:\n 如果熔岩從頂部流到水或水流時,會生成石頭.\n 如果熔岩水平流到水裡,會生成圓石.\n 如果水水平流向熔岩,會發出嘶嘶聲,出現一陣煙,但之後沒有任何改變.\n 如果水垂直流向熔岩,會生成圓石或者是發出嘶嘶聲.熔岩源會在這個過程中被摧毀,所以不像圓石那樣可以再次創造出來,也不是可再生資源.\n 如果水流向熔岩源方塊,會生成黑曜石.\n 如果垂直的水流流下來觸及到熔岩源方塊或熔岩源方塊的任何一側會生成黑曜石 - 即使水不會碰到熔岩那一格.\n \n其它:\n熔岩上方一個不透明方塊(不包括樓梯、柵欄以及台階)會在方塊的下方產生熔岩滴顆粒,當顆粒效果開啟時,可以在一定的距離裡看見這些顆粒.\n這些顆粒純粹是為了美觀,與它們相對應的水滴顆粒的功能是一樣的,除了水滴滴落的速度快一些以外.\n\n熔岩可以觸發絆綫,因為它們破壞了綫.它將只會觸發一次.\n\n如果玩家向流動的(非靜止的)熔岩射箭,那麼箭會着火.\n\n光源:\n熔岩方塊可提供15級的亮度.\n\n熔岩多數時間都是靜止的,而不是'流動的' - 無論它在哪一層,或者是否包含了向下的一邊或一側.\n當由一次方塊更新特殊激活後,熔岩會變成'流動的',更新它的層數,然後變回靜止.\n熔岩泉會以流動的形式生成,熔岩湖會以靜止的形式生成.\n\n你知道嗎?\n在距離熔岩方塊對角1格的地方放置1個水源方塊(但不經過角落)將會首先流向熔岩,然後再流向遠離熔岩的方向.\n出現這個現象的原因是水的物理機制相信熔岩所在處是空的,並且嘗試流到那個地方.\n一旦水把熔岩變成黑曜石後,水的物理機制就會更新為流到其它各個方向.(這在熔岩浮在水上面也會發生)\n\n儘管熔岩是流體,但不會在熔岩裡淹死.這對所有生物都有效.[僅Java與主機版]\n\n當玩家在床上時,玩家不能被熔岩傷害.\n\n在主機版,不能在出生點附近放置熔岩.\n\n如果嘗試把熔岩的材質更改為透明,它仍然是不透明的.\n\n數據值\n流動的熔岩\nDEC: 10 HEX: A BIN: 1010\n靜止的熔岩\nDEC: 11 HEX: B BIN: 1011\n\n名稱\n流動的熔岩\nflowing_lava\n靜止的熔岩\nlava\n\n\n熔岩桶:\n熔岩源方塊可以使用桶來收集,與收集水的途徑一樣.\n\n熔岩桶可以作為高效率的燃料使用.與800秒的煤炭塊相比,它最長可以燃燒1000秒(一個熔岩桶可燒煉100個物品,一個煤炭方塊可燒煉80個物品).\n燃料用完後會留下空桶(Minecraft: Xbox 360版除外,桶會消失).\n\n數據值\nDEC: 327 HEX: 147 BIN: 101000111\n名稱\nlava_bucket\n"
        },
        {
            "file_name": "block_junshi.png",
            "name": "菌絲",
            "material": " ",
            "use": "蘑菇可以生長在任何亮度的菌絲上面\n只能夠通過精準採集附魔的工具進行開採",
            "detail": "菌絲(Mycelium)是在表面上不斷釋放微小孢子顆粒效果的方塊.\n\n菌絲只能夠通過帶有精準採集附魔的工具進行開採,否則只會掉落泥土.用鍬開採是最快的.\n\n菌絲只能夠在蘑菇生物群系裏生成.\n\n不像其他方塊那樣,蘑菇可以生長在任何亮度的菌絲上面,其他高亮度等級的方塊會在更新時破壞蘑菇(蘑菇會掉落為物品).\n巨型蘑菇可以生長在菌絲上.\n\n不能用鋤來把菌絲變成耕地,樹苗和花也不能長在菌絲上.\n\n蔓延:\n菌絲可以傳播到任何在同一高度以及相鄰的泥土,它也可以傳播到高1格和低3格的泥土.\n蔓延時菌絲需要9級以上的亮度,而被蔓延的泥土則需要4級以上的亮度,並且不能被任何可阻擋光線的方塊或不透明方塊覆蓋.\n菌絲會在被可阻擋光線的方塊覆蓋或亮度低於4的時候變為泥土.\n\n如果被蔓延的泥土上有樹苗或花,樹苗或花就會跳出地面,成為掉落的物品.西瓜和南瓜不會長在菌絲上.\n\n在蘑菇生物群系中天然生成的洞穴和峽谷不會替換掉菌絲,通常會在峽谷底部留下薄薄的一層菌絲,或在洞穴中留下'條狀'的菌絲層.\n\n你知道嗎?\n通常有誤解認為菌絲上只能生成哞菇,這是不對的.攻擊性和被動性生物都能在菌絲上生成,和其它方塊一樣.是蘑菇生物群系的特性阻止了其它生物的生成.\n同樣道理,不在蘑菇生物群系中的菌絲不會生成哞菇.\n\n菌絲的孢子效果在遊戲原始碼中被稱為'townaura'(村莊光環).\n\n數據值\nDEC: 110 HEX: 6E BIN: 1101110\n名稱\nmycelium"
        },
        {
            "file_name": "block_xiajieshiyingkuanshi.png",
            "name": "下界石英礦石",
            "material": " ",
            "use": "下界中唯一出現的礦石",
            "detail": "下界石英礦石(Nether quartz ore)是下界中唯一出現的礦石.\n\n使用帶有精準採集附魔的鎬開採會掉落下界石英礦石自身(而不是掉落下界石英).\n\n下界石英礦石與在主世界裡的鐵礦石一樣豐富,可在7-117層找到,但下界的巨大開放空間都充滿了礦石,因此下界石英礦石看起來很常見.平均每區塊有79個下界石英礦石.\n下界石英礦石只生成在地獄岩生成的地方.這意味着像其它所有的礦石那樣,下界石英礦石很少零散出現.\n\n像鐵礦石那樣,下界石英礦石的礦脈大小在4-10個方塊之間.\n\n用鎬開採下界石英礦石會掉落1個下界石英和2-5點經驗.使用帶有時運附魔的鎬會可能會每等級增加1掉落量(最高為等級3時,掉落量為4). \n(按照開採1280個下界石英礦石得到的結果可以得出時運3的平均掉落量為2.1875個石英.).\n\n你知道嗎?\n不像地獄岩那樣,火不會在下界石英礦石無限燃燒.\n\n下界石英礦石和其它礦石擁有相同的爆炸抗性,地獄岩和石英塊加起來的爆炸抗性之和比下界石英礦石小.\n\n下界石英礦石材質與地獄岩相同,但添加了白色條紋.相似的設計也應用在煤炭塊,但是在這個黑色方塊裡它的條紋也是黑色的.\n\n下界石英礦石原本計劃在以礦石形式在 Minecon 2013 作為促進探索下界的動力在下界生成.該礦石被計劃為紅石的一種,或者是會掉落可用在紅石電路里的物品,詳見下界石英.\n\n數據值\nDEC: 153 HEX: 99 BIN: 10011001\n名稱\nquartz_ore"
        },
        {
            "file_name": "block_diyuyang.png",
            "name": "地獄岩",
            "material": " ",
            "use": "可以合成地獄岩磚塊",
            "detail": "地獄岩(Netherrack)是在下界裡找到的像岩石那樣的方塊.\n\n地獄岩只能用鎬收集.\n\n地獄岩是大多數下界地形的組成部分.\n\n末影人也可以拿起地獄岩,在被殺死後會掉落.\n\n地獄岩的頂部如果被點燃,會無限燃燒.\n\n數據值\nDEC: 87 HEX: 57 BIN: 1010111\n名稱\nnetherrack"
        },
        {
            "file_name": "block_heiyaoshi.png",
            "name": "黑曜石",
            "material": " ",
            "use": "擁有極高的爆炸抗性\n還可以用於製作下界傳送門",
            "detail": "黑曜石(Obsidian)是一種以極高的爆炸抗性以及用於製作下界傳送門而出名的黑色方塊.\n\n黑曜石是唯一一個需要鑽石鎬來獲取的方塊.下表列出了使用沒有附魔的工具挖掘黑曜石所用的時間.\n徒手    250秒\n木鎬    125秒\n金鎬    20.8秒\n鐵鎬    41.7秒\n石鎬    62.5秒\n鑽石鎬  9.4秒\n\n信標給予的急迫效果和鎬的效率附魔都可以縮短挖掘時間.詳見黑曜石生產器教程.\n\n當流動的水與熔岩源方塊碰到一起時,會生成黑曜石,故經常可以在y=10左右熔岩池附近的水流和湖那裡找到黑曜石.\n\n當下界傳送門在下界或主世界生成時會生成黑曜石,這些黑曜石可以被挖掘,提供了一種可再生黑曜石資源的途徑.\n\n當玩家進入末路之地時,在玩家生成的地方會生成25塊黑曜石.這些黑曜石可以被挖掘,並且會在玩家重新進入末路之地時再次生成.\n在末路之地表面還能找到黑曜石砫,這些黑曜石砫會在末影龍復活時重新生成.黑曜石也會作為末地城的一部分生成.\n\n黑曜石在林地府邸的'黑曜石房間'中生成,它們形成一個樹狀結構,中間藏有一個鑽石塊.\n\n黑曜石會在26.0%的村莊鐵匠鋪的箱子裡以3–7個為一組的形式出現,也會在8.0%的下界要塞的箱子裡以2–4個為一組的形式出現.\n\n使用不帶有精準採集附魔的鎬開採末影箱會掉落8個黑曜石.\n\n黑曜石可以用來構築高爆抗結構,其爆炸抗性為6000,是生存模式裡能獲得的最高爆炸抗性的方塊.鐵砧的爆炸抗性也和黑曜石的相同.黑曜石不能被活塞推動.\n\n下界傳送門:\n黑曜石可以用來建造下界傳送門框架,該框架需要點燃來激活.\n框架的形狀是豎直的長方形,其尺寸可以是4×5到23×23之間的任意一個尺寸.注意框架一角的黑曜石是不需要的.\n\n可以作為以下物品的合成材料:\n信標\n附魔台\n末影箱\n\n你知道嗎?\n黑曜石是 Minecraft 除了基岩以外最難破壞的方塊之一,但在現實中,黑曜石與玻璃相似,易碎.\n\n在現實中,黑曜石是在熔岩冷卻時形成的,像安山岩那樣.\n\n藍色凋靈之首可摧毀黑曜石的特性是一個特殊的特性,它的爆炸並不強於惡魂火球.\n\n數據值\nDEC: 49 HEX: 31 BIN: 110001\n名稱\nobsidian"
        },
        {
            "file_name": "block_hongshikuangshi.png",
            "name": "紅石礦石",
            "material": " ",
            "use": "開採後可獲得紅石粉",
            "detail": "紅石礦石(Redstone ore)是開採後可獲得紅石的礦石方塊.\n\n使用帶有精準採集附魔的鐵鎬或鑽石鎬開採紅石礦石方塊會掉落其自身.\n\n自然生成:\n紅石礦石礦脈在16層以下.在14層以下,找到它的幾率是找到石頭幾率的1.025%.平均每個區塊約有24.8個紅石礦石.\n紅石礦石礦脈由4-8個紅石礦石方塊組成.然而,多個礦脈生成在一起或有非石頭方塊環繞着礦脈可以改變礦脈的大小..\n\n使用鐵鎬或更好的鎬開採會掉落4-5個紅石和1-5點經驗.使用帶有時運附魔的鎬會增加掉落量.\n\n光照:\n當滑鼠單擊、方塊更新或被任何生物(包括不在潛行的玩家)接觸時,紅石礦石會產生9級的亮度以及紅色的顆粒.\n該效果會一直持續到紅石礦石方塊接收到方塊刻為止(平均為68.27秒).\n該效果實際上不會產生任何的紅石信號,但這個改變可被方塊更新感應器探測到,允許紅石礦石表現出像壓力板那樣的行為,但只能探測其側面以及底面.\n\n你知道嗎?\n在攜帶版,踏上紅石礦石不會觸發一次方塊更新.\n\n數據值\n方塊         ID名稱         數字ID\n紅石礦石     redstone_ore   73\n發光的紅石礦石  lit_redstone_ore   74"
        },
        {
            "file_name": "block_shazhi.gif",
            "name": "沙子 紅沙",
            "material": " ",
            "use": "在海灘和沙漠自然生成",
            "detail": "沙子(Sand)是一種在海灘和沙漠自然生成的方塊.\n紅沙(Red Sand)是沙子的一個變種,紅沙和沙子除了顏色有區別外基本上是一致的.\n\n可使用任何工具摧毀沙子,但用鍬是最快的.\n\n自然生成:\n沙子會在主世界的許多生物群系裏生成,尤其是沙漠、海灘和河流,生成在被石頭和砂岩支持着的4格厚的層裡.\n紅沙自然生成在平頂山生物群系以及平頂山生物群系的變種裡.\n沙子有59.0%幾率在沙漠神殿內的箱子裡以1-8個為一組的形式獲得.\n沙子會在59.0%的沙漠神殿的箱子裡以1–8個為一組的形式出現.\n\n沙子在下方沒有方塊時會掉落,直到下方有方塊為止.當沙子被重力效果影響掉落時,會顯示平滑的掉落動畫.\n\n如果沙子在掉落的過程中砸到生物或玩家,那麼就會對生物或玩家造成窒息傷害,除非沙子被摧毀、走出方塊或者死亡.\n如果掉落的沙子佔據了非固體方塊的空間,(例如火把、台階、鐵軌和紅石),沙子就會掉落成為一個物品.\n沙子掉落到蜘蛛網的時候速度會變得很緩慢,直到沙子掉出蜘蛛網或已經着陸(變成一個資源方塊).\n\n沙子可以在不掉落的情況下放在非固體方塊上.\n\n沙子可以用來做空氣閘和窒息陷阱.由於重力的影響,沙子可以很容易從地面上快速移除.\n\n仙人掌和甘蔗可以在沙子和紅沙上面種植.\n\n掉落中的沙子實體可以採用任何方塊的材質.通過變更 BlockID 和使用/summon命令,玩家能夠創造其它材質的掉落中的沙子.\n\n可以作為以下物品的合成材料:\n對應的混凝土粉末\n砂岩\nTNT\n玻璃\n\n沙子的ID是 minecraft:sand ,要進一步定義這個方塊還需要方塊數據.沙子還擁有方塊狀態,一個即將在未來版本中被取代的功能.\n\n方塊數據:\nDV 描述\n0 沙子\n1 紅沙\n\n數據值\n沙子\nDEC: 120 HEX: C0 BIN: 11000\n紅沙\nDEC: 121 HEX: C1 BIN: 11001\n名稱\nsand"
        },
        {
            "file_name": "block_xue.gif",
            "name": "雪",
            "material": " ",
            "use": "好像沒啥用處",
            "detail": "雪(Snow)是常見的由降雪天氣造成的覆蓋性方塊.\n\n用鍬摧毀雪會掉落2個雪球,之後掉落的雪球數隨層數加一.如果不是使用鍬摧毀雪的,則不會掉落任何東西.在攜帶版,雪會受到重力影響.\n\n如果方塊亮度等級大於等於12,雪會融化.雪只會在攜帶版中被太陽照射而融化.\n\n雪會在冰原和冷針葉林生物群系,以及峭壁生物群系95層以上的地方自然生成.\n\n降雪:\n在有雪的生物群系或在較冷生物群系的不同層的地方會隨機降雪,而不是降雨.當下雪時,雪會隨機在亮度等級少於等於10的非透明方塊上生成(浮冰除外).\n在攜帶版,在降雪時可以自然生成多層雪.\n\n雪傀儡在移動的時候會在溫度適中的一些生物群系裏留下一條雪跡.\n\n用途:\n如果雪覆蓋在草方塊或者在菌絲上面,草會變成白色.雪不會破壞耕地和有水分的區域,也不會保護已開墾的耕地免遭踩踏.\n像沙子和沙礫這樣受重力影響的方塊如果其下方的方塊被雪覆蓋則不會掉落,如果掉在雪上會被破壞.\n\n在攜帶版中,雪可以被放置在花裡,蘑菇裡和高草裡,可以堆積和正常挖掘.雪會被重力影響故會在沒有方塊支持的情況下掉落.\n\n你知道嗎?\n在仙人掌前面用雪堆疊成一個完整的方塊,仙人掌不會被破壞.\n\n在雪上放火把,雪會被火把替代.\n\n當雪在靈魂沙上面時靈魂沙會變得和普通方塊一樣.\n\n兩層至七層厚的雪能防止攻擊性生物生成.\n\n在攜帶版,由於雪是重力方塊(和沙子一樣),因此可在下落時底下快速放置火把來收集本身.\n\n雪的ID名稱為 minecraft:snow_layer,並根據方塊數據來進一步定義.同時雪還有將來用於取代方塊數據的方塊狀態.\n\n數據值\nDEC: 78 HEX: 4E BIN: 1001110\n名稱\nsnow_layer"
        },
        {
            "file_name": "block_xuekuai.png",
            "name": "雪塊",
            "material": " ",
            "use": "雪做成的完整方塊",
            "detail": "雪塊(Snow Block)是用雪做成的完整方塊.\n\n當用鍬摧毀時,會掉落雪球.如果使用帶有精準採集附魔的鍬,則會掉落雪塊.\n\n不像雪那樣,雪塊既不會在高亮度等級的光源下融化,也不會被水摧毀.\n\n雪塊自然生成在冰刺平原生物群系裏和雪屋裡.\n\n雪塊可使用4個雪球合成獲得,也就允許在玩家物品欄裡面的合成窗口裡合成雪塊.\n\n雪也能用來製造雪傀儡.放2個雪塊,然後在雪塊頂上再放1個南瓜或南瓜燈就能生成雪傀儡了,注意南瓜必須要最後放置.雪塊可以豎直放,也可以橫着放.\n\n你知道嗎?\n雪可以堆積在雪塊上,讓它們看起來比實際上要高.\n\n當雪塊放在草方塊上面的時候,草方塊中草的材質會改變,看起來就像是有一層雪覆蓋在它上面一樣.\n\n然而,因為雪塊是固體方塊,草方塊很快就會變成泥土了.\n\n數據值\nDEC: 80 HEX: 50 BIN: 1010000\n名稱\nsnow\n\n"
        },
        {
            "file_name": "block_linghunsha.png",
            "name": "靈魂沙",
            "material": " ",
            "use": "被用來種植地獄疣",
            "detail": "靈魂沙(Soul sand)是僅自然生成在下界的方塊.\n\n靈魂沙可用任何工具或者不用工具進行開採,但用鍬是最快的.\n\n靈魂沙可在下界 Y=65 以下的地方找到,通常以4格深的形式生成.它也自然生成在下界要塞的地獄疣房間裡.\n\n用途:\n靈魂沙會降低所有站在其上方的實體(生物和玩家)的移動速度,並導致他們在靈魂沙上面行走時下沉2個像素.\n當靈魂沙被放置在水裡或冰、浮冰或粘液塊上時,這種效果會更加顯著.\n它也可以導致尺寸小於一個台階的生物窒息,也就是蠹蟲和末影蟎.\n\n種植地獄疣:\n靈魂沙被用來種植地獄疣,地獄疣是許多藥水的一個主要基礎配方.\n地獄疣可種植在(像種子種在耕地上那樣)靈魂沙上,收割完全成熟的地獄疣可產生多個地獄疣.\n\n在構造凋靈的過程中使用了4個靈魂沙.\n\n數據值\nDEC: 88 HEX: 58 BIN: 1011000\n名稱\nsoul_sand"
        },
        {
            "file_name": "block_shui.png",
            "name": "水",
            "material": " ",
            "use": "使用桶來收集",
            "detail": "水(water)是一種自然的液體.\n\n水不能以物品形式獲得,但可以在煉藥鍋或水源方塊上使用桶來收集.\n\n水自然生成在主世界裡,形成了海洋、湖泊、河流、瀑布、村莊以及沙漠水井.\n\n玩家在水裡挖掘在水面上方塊的時間是正常挖掘所花時間的5倍,在水裡挖掘在水面下的方塊是正常挖掘所花時間25倍.\n然而,如果有水下速掘效果,那麼挖掘速度就會更快,水裡挖水面上的方塊只要花1倍的時間,而挖水面下的方塊則需要5倍.\n\n水會傳播到附近的空氣方塊裡.傳播的水將會熄滅火以及沖走在其傳播路徑上的植物、雪、火把、地毯、絆綫、鐵軌、紅石以及蜘蛛網,沖走時,會掉落沖走的物品.\n\n水源方塊:\n緊挨着2個或更多的水源方塊的流動的水的方塊會變成一個水源方塊,這個水源方塊在一個固體方塊或其它水源方塊的頂部.\n該規則讓無限水源成為可能.使用該規則,可以在一個狹窄的區域裡放置水源方塊來創建一池靜止的水.\n1個 2×2 的無限水源.可以從任何角落取水.\n1個 3×1 的無限水源.可以從中間取水.\n\n使用水桶填充發射器時且當發射器被激活時,它就會在它前方1格空位放置一個水源方塊.當使用桶填充發射器而發射器前方又是水源方塊,當發射器被激活時,會把水吸進桶裡.\n\n在有雪的生物群系裏,水源方塊有幾率變成冰,在冰融化時會重新出現(下界除外).如果冰下面1格有方塊,那麼冰就會變回水.\n\n水方塊裡的水流決定了其出現的材質的流向,以及決定諸如玩家或船之類的實體將會流向哪個方塊的方向.\n\n水平水流方塊是基于一個流向矢量和以及從那個方塊的4個水平的鄰近方塊的.\n例如,如果一個方塊接收了來自北邊的水,並將它送到南邊和東邊,但在其西邊毗連一個固體方塊,然後在那個方塊的水流將會變成東南南方向,因為有2個向南的水流(進和出)被合併為1個向東的水流(出).\n因此,16個水平方向水流是可能的.如果一個河道內的一個分支距離它的入口有2方塊寬,然後實體將會流向那裡而不是繼續以直線流動.\n\n水流會以1.39米/秒(或25方塊/18秒)的速度推動生物.\n\n在水下穿戴了帶水下呼吸附魔的護甲和不帶水下呼吸附魔護甲的區別.\n除了普通的分散以外,光線每穿過1格水就會-2亮度等級,因此在水很深的地方渲染距離很低.\n\n有3種方法可以增加水下渲染距離:穿戴帶有水下呼吸附魔的頭盔,使用夜視藥水以及水肺藥水.\n\n水和熔岩可以生成石頭、圓石或者黑曜石,取決於它們如何互動.\n\n水會對末影人,烈焰人和雪傀儡造成傷害.\n\n數據值\n流動的水\nDEC: 08 HEX: 8 BIN: 1000\n靜止的水\nDEC: 09 HEX: 9 BIN: 1001\n\n名稱\n流動的水\nflowing_water\n靜止的水\nwater\n\n\n水桶\n\n水桶(Water bucket)是桶的一個裝了水的變種.\n\n要用桶裝水,對水源方塊使用它.在該過程中桶會裝上水.在固體方塊使用水桶,將會在按下的時候放置水源方塊.然而在下界,水會蒸發.\n\n在玩家使用水桶或被發射器激活發射時,會讓水流出桶,並把水桶變成桶.\n\n水桶可填充煉藥鍋.\n\n水在多數時間都是靜止的,而不是'流動的'——不管它的級別是多少,或是否包含一個向下或向側面的水流.\n當被一個特定的方塊更新觸發時,水會變成'流動的',更新它的級別,然後變回靜止.水泉以流動的水生成,而海洋、湖泊以及河流是以靜止的水生成的.\n這在多數結構生成時就出現了,導致水'故障'的主要原因是生成的結構不會觸發方塊更新來讓水流進它們.\n\n數據值\nDEC: 326 HEX: 146 BIN: 101000110\n名稱\nwater_bucket\n"
        }
        
 ]
}
