﻿{
  "category": "藥水",
  "blocks": [
    {
      "file_name": "yaoshuijieshao.png",
      "name": "藥水介紹",
      "material": " ",
      "use": "釀造是在釀造台中在水瓶中加入各種的材料來製作藥水、噴濺藥水和滯留藥水的過程,以達成狀態效果",
      "detail": "以下列出的是釀造每種藥水的最有效率的配方.\n如果兩種材料可以以任意順序放入的話,它們將由雙向箭頭(↔)連接.\n\n虛弱藥水\n發酵蛛眼\n\n虛弱藥水 延長版\n發酵蛛眼 → 紅石粉\n\n力量藥水\n地獄疣 → 烈焰粉\n\n力量藥水 延長版\n地獄疣 → 烈焰粉 → 紅石粉\n\n力量藥水 II\n地獄疣 → 烈焰粉 → 熒石粉\n\n再生藥水\n地獄疣 → 惡魂之淚\n\n再生藥水 延長版\n地獄疣 → 惡魂之淚 → 紅石粉\n\n再生藥水 II\n地獄疣 → 惡魂之淚 → 熒石粉\n\n迅捷藥水\n地獄疣 → 糖\n\n迅捷藥水 延長版\n地獄疣 → 糖 → 紅石粉\n\n迅捷藥水 II\n地獄疣 → 糖 → 熒石粉\n\n遲緩藥水\n地獄疣 → 糖 → 發酵蛛眼\n地獄疣 → 兔子腳 → 發酵蛛眼\n\n遲緩藥水 延長版\n地獄疣 → 糖 → 發酵蛛眼 ↔ 紅石粉\n地獄疣 → 兔子腳 → 發酵蛛眼 ↔ 紅石粉\n\n瞬間治療藥水\n地獄疣 → 閃爍的西瓜瞬間治療藥水 II\n地獄疣 → 閃爍的西瓜 → 熒石粉\n\n瞬間傷害藥水\n地獄疣 → 閃爍的西瓜 → 發酵蛛眼\n地獄疣 → 蜘蛛眼 → 發酵蛛眼\n\n瞬間傷害藥水 II\n地獄疣 → 閃爍的西瓜 → 發酵蛛眼 ↔ 熒石粉\n地獄疣 → 蜘蛛眼 → 發酵蛛眼 ↔ 熒石粉\n\n劇毒藥水\n地獄疣 → 蜘蛛眼\n\n劇毒藥水 延長版\n地獄疣 → 蜘蛛眼 → 紅石粉\n\n劇毒藥水 II\n地獄疣 → 蜘蛛眼 → 熒石粉\n\n抗火藥水\n地獄疣 → 岩漿膏\n\n抗火藥水 延長版\n地獄疣 → 岩漿膏 → 紅石粉\n\n夜視藥水\n地獄疣 → 金胡蘿蔔\n\n夜視藥水 延長版\n地獄疣 → 金胡蘿蔔 → 紅石粉\n\n隱身藥水\n地獄疣 → 金胡蘿蔔 → 發酵蛛眼\n\n隱身藥水 延長版\n地獄疣 → 金胡蘿蔔 → 發酵蛛眼 ↔ 紅石粉\n\n水肺藥水\n地獄疣 → 河豚\n\n水肺 延長版\n地獄疣 → 河豚 → 紅石粉\n\n跳躍藥水\n地獄疣 → 兔子腳\n\n跳躍藥水 II\n地獄疣 → 兔子腳 → 熒石粉\n\n跳躍藥水 延長版\n地獄疣 → 兔子腳 → 紅石粉\n\n不可釀造的藥水\n幸運藥水[僅限PC和主機版]與衰變藥水[僅限攜帶版]是無法被釀造的\n擁有它們的唯一方法是使用命令諸如/give @p minecraft:potion 1 0 {Potion:luck},或者在創造模式物品欄裡.\n\n根據minecraft.jar/lang/zh_CN.lang的信息,現存的藥水類型如下：\n迅捷藥水\n遲緩藥水\n力量藥水\n虛弱藥水\n治療藥水\n傷害藥水\n再生藥水\n抗火藥水\n水肺藥水\n劇毒藥水\n夜視藥水\n隱身藥水\n跳躍藥水\n\n由於釀造系統的變更,以下的藥水目前無法獲得：\n速掘藥水\n緩掘藥水\n反胃藥水\n失明藥水\n饑餓藥水\n衰變藥水\n抗性藥水\n\n一些藥水甚至沒有實際名稱,且無法獲得：\npotion.healthBoost.postFix 藥水\npotion.absorption.postFix 藥水\npotion.saturation.postFix 藥水\n\n女巫在喝藥水時被殺死會掉落它們正在喝的藥水,如治療藥水、抗火藥水、迅捷藥水、水肺藥水\n几乎所有藥水能通過以水瓶作為基礎的釀造獲得\n藥水的不同效果是通過他們的損害值來區分的(除了一些還原的藥水之外)\n藥水有多層,它們是基礎、延長版、二級、三級、還原版.對於大多數的藥水,延長版的藥水能通過對釀造台的藥水加入紅石粉獲得,而二級藥水需要螢石粉\n如果對延長版的藥水加入螢石粉,或對二級藥水加入紅石粉,它們會在許可的情況下變成其他效果,或變成還原版的藥水\n大部分藥水能通過加入發酵蛛眼被腐化,這通常會產生與原效果相反的負面效果(例如：治療變傷害).腐化的藥水和普通藥水一樣有四層,而藥水在腐化後,層數通常會被保留\n基礎藥水是在釀造主要藥水前首先要製作的藥水.所有基礎藥水在飲用時均無任何效果\n二級藥水的持續時間永遠是對應基礎藥水的一半；所有延長版藥水的持續時間都是對應未延長的一級藥水的8⁄3\n三級藥水的持續時間比二級要長\n玻璃瓶是所有藥水的容器\n水瓶是所有藥水的基礎.通過將一個玻璃瓶從水源或是煉藥鍋裡裝水獲得\n烈焰粉能補充釀造台20點能量[僅限電腦和主機版]\n\n將1~3個藥水瓶放入釀造台界面底部的3個藥水槽中,將材料放入頂部的材料槽中,在燃料槽裡放置烈焰粉[僅限PC和主機版],便可以將材料提煉到藥水瓶中,並釀造出能給予玩家效果的藥水.\n每種藥水都是從製作水瓶開始的,水瓶可以通過玻璃瓶從水源或煉藥鍋裡裝水而獲得.在烈焰粉的供能下,[僅限PC和主機版]下一步則是添加基礎材料來製造基礎藥水,通常會是地獄疣,它會釀造出粗製的藥水,但本身並不會給藥水添加效果.當你以同樣的方式放入二級材料時,你就可以製造出有效果的藥水了.放入第三個材料可以使藥水效果增強、持續更久、或者是顛覆效果；在釀造的任意階段加入火藥,可以將藥水轉化成噴濺藥水,使藥水能被投擲(或被發射器發射)並使效果擴散開來.最後,可以對任意階段的噴濺藥水加入龍息,將藥水轉化成滯留藥水,使藥水效果可以在一個圓形範圍內持續一段時間.每個釀造步驟耗時20秒.\n每份作為燃料使用的烈焰粉[僅限PC和主機版]使燃料槽增加20點燃料.每一次釀造會花費1點燃料.花費的燃料點在材料被取出、藥水瓶被取出導致釀造終止時不會返還.\n\n你知道嗎\n使用火藥釀造出的噴濺藥水.\n3個藥水槽裡只要有1個放有藥水瓶,釀造過程就會繼續,且可以繼續放入藥水瓶.然而,如果釀造材料被移走,或藥水槽被清空,則釀造過程就會終止,就像什麼都沒有被釀造過一樣.\n放入的3個藥水瓶並不需要一致.\n使用紅石來升級沒有持續時間的藥水(瞬間治療,瞬間傷害)沒有任何作用.\n使用熒石粉來升級沒有II級效果的藥水(抗火、緩慢、虛弱)沒有任何作用.\n\n雖然Jeb說過在1.9 pre-release 3里有161種藥水組合而將來會有2,653種,但實際的pre-release 3中不使用外部程序的話只有22種不同的藥水.\n這些藥水中的其中19種各有8種不同的效果.\n\n遺留在1.9預覽版中的許多藥水擁有各不相同的元數據,且除了伺服器命令或物品欄修改器外無法獲得.\n這些藥水包含但不限于：拙劣的藥水,粘稠的藥水,活潑的藥水,精製的藥水.\n\n通過帶上水桶、堆疊成組的空玻璃瓶和煉藥鍋可以往下界攜帶儘量多的水.這是因為可堆疊的玻璃瓶在裝水後便變得不可堆疊.\n亡靈族生物(殭屍、骷髏、殭屍豬人和凋靈)不受劇毒藥水和再生藥水的影響,且會受治療藥水的傷害,並從傷害藥水中獲得治療.\n將發酵蛛眼與任意基礎藥水(包括被遺棄的藥水)混合均會得到虛弱藥水、隱身藥水或遲緩藥水之一.\n使用修改器或命令修改物品的NBT標籤,可以得到正常情況下無法獲得的噴濺藥水種類.\n同時使用水肺藥水與夜視藥水可得到最佳的水下視覺.\n\n衰變藥水是手機版我的世界獨有的藥水種類\n衰變藥水目前沒有獲取途徑,不能通過藥水製作獲得\n\nIII級和IV級藥水只存在於原始碼中.\n\n藥水使用NBT\"Potion\"標籤來控製藥水的屬性"
    },{
      "file_name": "shuiping.png",
      "name": "水瓶",
      "material": "玻璃瓶",
      "use": "裝着水的玻璃瓶",
      "detail": "玻璃瓶能通過右鍵按水源或裝着水的煉藥鍋來裝滿變成水瓶.\n\n使用玻璃瓶來裝煉藥鍋內的藥水會使它變成那種藥水。[僅攜帶版] \n\n如果通過煉藥鍋來裝滿，煉藥鍋的水會減少1/3。\n\n几乎所有藥水能通過以水瓶作為基礎的釀造獲得。\n\n數據值:\n0\n數據值標籤water"
    },
    {
      "file_name": "chuzhideyaoshui.png",
      "name": "粗製的藥水",
      "material": "地獄疣 + 水瓶",
      "use": "基礎藥水\n所有主要藥水的基礎(同時也是除了噴濺的平凡藥水之外的所有噴濺藥水的基礎)",
      "detail": "數據值:16"
    },
    {
      "file_name": "nongchoudeyaoshui.png",
      "name": "濃稠的藥水(渾濁的藥水)",
      "material": "螢石粉 + 水瓶",
      "use": "基礎藥水\n虛弱藥水的基礎",
      "detail": "數據值:32"
    },
    {
      "file_name": "pingfangdeyaoshui.gif",
      "name": "平凡的藥水",
      "material": "紅石粉 或岩漿膏 或閃爍的西瓜 或蜘蛛眼\n或惡魂之淚 或烈焰粉 或河豚 或兔子腳 + 水瓶",
      "use": "基礎藥水\n虛弱藥水與噴濺的平凡藥水的基礎",
      "detail": "名稱\nmundane\n數據值:64"
    },
    {
      "file_name": "xuruoyaoshui.png",
      "name": "虛弱藥水",
      "material": "發酵蛛眼 + 水瓶",
      "use": "基礎藥水\n對所有的近身攻擊減少2顆紅心的傷害",
      "detail": "持久時間 1:30\n\n減少0.25顆紅心的近戰傷害.[僅限主機和攜帶版]\n\n名稱\nweakness\n數據值:8200"
    },
    {
      "file_name": "zhiliaoyaoshui.png",
      "name": "治療藥水",
      "material": "閃爍的西瓜 + 粗製的藥水",
      "use": "二級藥水\n每瓶恢復2顆紅心生命值",
      "detail": "持久時間 瞬間\n\n名稱\nhealing\n數據值:8197"
    },
    {
      "file_name": "kanghuoyaoshui_1.png",
      "name": "抗火藥水",
      "material": "岩漿膏 + 粗製的藥水",
      "use": "二級藥水\n給予對火,熔岩,和烈焰人的遠距離攻擊的免疫力",
      "detail": "持久時間 3:00\n\n名稱\nfire_resistance\n數據值:8259"
    },
    {
      "file_name": "zhaishengyaoshui.png",
      "name": "再生藥水",
      "material": "惡魂之淚 + 粗製的藥水",
      "use": "二級藥水\n共回覆9顆紅心生命值\n大概每2.5秒恢復0.5顆紅心生命值",
      "detail": "持久時間 0:45\n\n名稱\nregeneration\n數據值:8193"
    },
    {
      "file_name": "liliangyaoshui.png",
      "name": "力量藥水",
      "material": "烈焰粉 + 粗製的藥水",
      "use": "二級藥水\n所有近身攻擊傷害增加1.5顆紅心傷害值",
      "detail": "持久時間 3:00\n\n增加130%近戰攻擊傷害.[僅限主機和攜帶版]\n\n名稱\nstrength\n數據值:8201"
    },
    {
      "file_name": "xunjieyaoshui.png",
      "name": "迅捷藥水",
      "material": "糖 + 粗製的藥水",
      "use": "二級藥水\n每級增加玩家20%的速度\n包括行走速度,潛行速度,疾跑速度與跳躍的長度",
      "detail": "持久時間 3:00\n\n增加20%移動速度,同時增加視野(疾跑每秒6.6格).\n\n名稱\nswiftness\n數據值:8194"
    },
    {
      "file_name": "yeshiyaoshui.png",
      "name": "夜視藥水",
      "material": "金胡蘿蔔 + 粗製的藥水",
      "use": "二級藥水\n使一切看上去處于最大亮度,包括水下區域",
      "detail": "持久時間 3:00\n\n在視覺上將所有物體的亮度提高到15.\n用藍色的光使水變亮,用橘色的光使熔岩變亮.\n(其他沒有此效果的玩家不能看到增大的亮度)\n\n名稱\nnight_vision\n數據值:8198"
    },
    {
      "file_name": "tiaoyueyaoshui.png",
      "name": "跳躍藥水",
      "material": "兔子腳 + 粗製的藥水 ",
      "use": "二級藥水\n許玩家跳得比原來高1⁄2格,並減少掉落傷害",
      "detail": "持久時間 3:00\n\n名稱\nleaping\n數據值:8203"
    },
    {
      "file_name": "shuifeiyaoshui.png",
      "name": "水肺藥水",
      "material": "河豚 + 粗製的藥水",
      "use": "二級藥水\n在水下時不會消耗氧氣條,且在水下的視野會更清晰",
      "detail": "持久時間 3:00\n\n名稱\nwater_breathing\n數據值:8205"
    },
    {
      "file_name": "shuifeiyaoshui_2.png",
      "name": "水肺藥水(延長版)",
      "material": "水肺藥水 + 紅石粉",
      "use": "二級藥水\n在水下時不會消耗氧氣條,且在水下的視野會更清晰",
      "detail": "持久時間 8:00\n\n名稱\nwater_breathing\n數據值:8269"
    },
    {
      "file_name": "juduyaoshui.png",
      "name": "劇毒藥水",
      "material": "蜘蛛眼 + 粗製的藥水",
      "use": "二級藥水\n在特定的時間內使玩家中毒",
      "detail": "持久時間 0:45\n最多使生命減少至0.5顆紅心生命值,以每1.5秒的速度消減0.5顆紅心生命值\n\n名稱\npoison\n數據值:8196"
    },
    {
      "file_name": "xuruoyaoshui_2.png",
      "name": "虛弱藥水",
      "material": "發酵蛛眼 + 粗製的藥水 或濃稠的藥水\n或平凡的藥水 或力量藥水 或再生藥水",
      "use": "二級藥水\n對所有遭到的近身攻擊減少2顆紅心傷害",
      "detail": "持久時間 1:30\n\n減少0.25顆紅心的近戰傷害.[僅限主機和攜帶版]\n\n名稱\nweakness\n數據值:8200"
    },
    {
      "file_name": "xuruoyaoshui_2.png",
      "name": "虛弱藥水(延長版)",
      "material": "紅石粉 + 虛弱藥水",
      "use": "二級藥水\n對所有遭到的近身攻擊減少2顆紅心傷害",
      "detail": "持久時間 4:00\n\n減少0.25顆紅心的近戰傷害.[僅限主機和攜帶版]\n\n名稱\nlong_weakness\n數據值:8264"
    },
    {
      "file_name": "zhengqiangweili.png",
      "name": "跳躍藥水II",
      "material": "跳躍藥水 + 螢石粉 ",
      "use": "二級藥水\n提高玩家1½格的跳躍高度",
      "detail": "持久時間 1:30\n\n進一步增加跳躍高度(超過2個方塊),並減少掉落傷害.\n\n名稱\nstrong_leaping\n數據值:8235"
    },
    {
      "file_name": "zhengqiangweili.png",
      "name": "跳躍藥水(延長版)",
      "material": "跳躍藥水或跳躍藥水II + 紅石粉",
      "use": "二級藥水\n提高玩家半格跳躍高度",
      "detail": "持久時間 8:00\n\n名稱\nlong_leaping\n數據值:8267"
    },
    {
      "file_name": "zhengchangshijiang.png",
      "name": "抗火藥水(延長版)",
      "material": "抗火藥水 或 抗火藥水(還原) + 紅石粉",
      "use": "三級藥水\n給予對火,熔岩,和烈焰人的遠距離攻擊的免疫力",
      "detail": "持久時間 8:00\n\n名稱\nlong_fire_resistance\n數據值:8259"
    },
    {
      "file_name": "zhengqiangweili.png",
      "name": "治療藥水II ",
      "material": "治療藥水 或 治療藥水(還原) + 螢石粉",
      "use": "三級藥水\n對非亡靈生物每瓶恢復4顆紅心生命值",
      "detail": "持久時間 瞬間\n\n名稱\nstrong_healing\n數據值:8229"
    },
    {
      "file_name": "zhengchangshijiang.png",
      "name": "再生藥水(延長版)",
      "material": "再生藥水 或再生藥水II + 紅石粉",
      "use": "三級藥水\n大概每2.5秒恢復1顆紅心生命值",
      "detail": "持久時間 1:30 (2:00[僅限主機和攜帶版])\n\n每2.5秒回覆0.5顆紅心生命值,共回覆18顆紅心生命值\n(在主機和攜帶版是24顆紅心生命值).\n\n名稱\nlong_regeneration\n數據值:8257"
    },
    {
      "file_name": "zhengqiangweili.png",
      "name": "再生藥水II",
      "material": "再生藥水 或 再生藥水(還原) + 螢石粉",
      "use": "三級藥水\n共回覆9顆紅心生命值",
      "detail": "持久時間 0:22\n\n大概每1.25秒恢復1顆紅心生命值\n\n名稱\nstrong_regeneration\n數據值:8225"
    },
    {
      "file_name": "zhengchangshijiang.png",
      "name": "力量藥水(延長版)",
      "material": "力量藥水 或力量藥水II + 紅石粉",
      "use": "三級藥水\n所有近身攻擊傷害增加1.5顆紅心傷害值",
      "detail": "持久時間 8:00\n\n增加1.5顆紅心近戰攻擊傷害.\n增加130%近戰攻擊傷害.[僅限主機和攜帶版]\n\n名稱\nlong_strength\n數據值:8265"
    },
    {
      "file_name": "zhengqiangweili.png",
      "name": "力量藥水II",
      "material": "力量藥水 或 力量藥水(還原) + 螢石粉",
      "use": "三級藥水\n所有近身攻擊傷害增加3顆紅心傷害值",
      "detail": "持久時間 1:30\n\n增加3顆紅心近戰攻擊傷害.\n增加260%近戰攻擊傷害.[僅限主機和攜帶版]\n\n名稱\nstrong_strength\n數據值:8233"
    },
    {
      "file_name": "zhengchangshijiang.png",
      "name": "迅捷藥水(延長版)",
      "material": "迅捷藥水 或迅捷藥水II + 紅石粉",
      "use": "三級藥水\n增加玩家的移動速度,疾跑速度,以及跳躍長度",
      "detail": "持久時間 8:00\n\n增加20%移動速度,同時增加視野(疾跑每秒6.6格).\n\n名稱\nlong_swiftness\n數據值:8258"
    },
    {
      "file_name": "zhengqiangweili.png",
      "name": "迅捷藥水II",
      "material": "迅捷藥水 或 迅捷藥水(還原) + 螢石粉",
      "use": "三級藥水\n加玩家的移動速度,疾跑速度,以及跳躍長度\n效果是迅捷藥水的兩倍",
      "detail": "持久時間 1:30\n\n增加40%移動速度,同時增加視野(疾跑每秒8格).\n\n名稱\nstrong_swiftness\n數據值:8226"
    },
    {
      "file_name": "zhengchangshijiang.png",
      "name": "夜視藥水(延長版)",
      "material": "夜視藥水 + 紅石粉",
      "use": "三級藥水\n使一切看上去處于最大亮度,包括水下區域",
      "detail": "持久時間 8:00\n\n在視覺上將所有物體的亮度提高到15.\n用藍色的光使水變亮,用橘色的光使熔岩變亮.\n(其他沒有此效果的玩家不能看到增大的亮度)\n\n名稱\nlong_night_vision\n數據值:8262"
    },
    {
      "file_name": "yingshengyaoshui.png",
      "name": "隱身藥水",
      "material": "夜視藥水 + 發酵蛛眼",
      "use": "三級藥水\n將玩家渲染成透明.穿著/拿着的物品仍然可見",
      "detail": "持久時間 3:00\n\n使得玩家的模型隱身,生物對玩家中立,除非玩家穿著盔甲.\n(第一件盔甲導致生物發現你的距離為1m,之後每件3m)其對應噴濺藥水可以使生物或其他玩家隱身.\n盔甲和手上的物品不會被這影響,一些生物'盔甲'(羊的羊毛、哞菇的蘑菇、狼的頸圈、蜘蛛/末影人的眼、'箭'和雪傀儡的南瓜)仍是可見的.\n\n名稱\ninvisibility\n數據值:8206"
    },
    {
      "file_name": "yingshengyaoshui.png",
      "name": "隱身藥水(延長版)",
      "material": "夜視藥水(延長版) + 發酵蛛眼",
      "use": "三級藥水\n將玩家渲染成透明.穿著/拿着的物品仍然可見",
      "detail": "持久時間 8:00\n\n使得玩家的模型隱身,生物對玩家中立,除非玩家穿著盔甲.\n(第一件盔甲導致生物發現你的距離為1m,之後每件3m)其對應噴濺藥水可以使生物或其他玩家隱身.\n盔甲和手上的物品不會被這影響,一些生物'盔甲'(羊的羊毛、哞菇的蘑菇、狼的頸圈、蜘蛛/末影人的眼、'箭'和雪傀儡的南瓜)仍是可見的.\n\n名稱\nlong_invisibility\n數據值:8270"
    },
    {
      "file_name": "zhengchangshijiang.png",
      "name": "隱身藥水(延長版)",
      "material": "隱身藥水 + 紅石粉",
      "use": "三級藥水\n將玩家渲染成透明.穿著/拿着的物品仍然可見",
      "detail": "持久時間 8:00\n\n使得玩家的模型隱身,生物對玩家中立,除非玩家穿著盔甲.\n(第一件盔甲導致生物發現你的距離為1m,之後每件3m)其對應噴濺藥水可以使生物或其他玩家隱身.\n盔甲和手上的物品不會被這影響,一些生物'盔甲'(羊的羊毛、哞菇的蘑菇、狼的頸圈、蜘蛛/末影人的眼、'箭'和雪傀儡的南瓜)仍是可見的.\n\n名稱\nlong_invisibility\n數據值:8270"
    },
    {
      "file_name": "shanghaiyaoshui.png",
      "name": "傷害藥水",
      "material": "治療藥水或劇毒藥水 + 發酵蛛眼",
      "use": "三級藥水\n對非亡靈生物給予3顆紅心的傷害",
      "detail": "持久時間 瞬間\n\n名稱\nharming\n數據值:8204"
    },
    {
      "file_name": "shanghaiyaoshui.png",
      "name": "傷害藥水II",
      "material": "治療藥水II 或劇毒藥水II + 發酵蛛眼",
      "use": "三級藥水\n對非亡靈生物給予6顆紅心的傷害",
      "detail": "持久時間 瞬間\n\n名稱\nstrong_harming\n數據值:8236"
    },
    {
      "file_name": "zhengqiangweili.png",
      "name": "傷害藥水II",
      "material": "傷害藥水 或 傷害藥水(還原) + 螢石粉",
      "use": "三級藥水\n對非亡靈生物給予6顆紅心的傷害",
      "detail": "持久時間 瞬間\n\n名稱\nstrong_harming\n數據值:8236"
    },
    {
      "file_name": "zhengchangshijiang.png",
      "name": "劇毒藥水(延長版)",
      "material": "劇毒藥水 或劇毒藥水II + 紅石粉",
      "use": "三級藥水\n在特定的時間內使玩家中毒",
      "detail": "持久時間 2:00\n最多使生命減少至0.5顆紅心,以每2秒的速度消減0.5顆紅心\n\n名稱\nlong_poison\n數據值:8260"
    },
    {
      "file_name": "zhengqiangweili.png",
      "name": "劇毒藥水II",
      "material": "劇毒藥水 或劇毒藥水(還原)+ 螢石粉",
      "use": "三級藥水\n在特定的時間內使玩家中毒",
      "detail": "持久時間 0:22\n最多使生命減少至0.5顆紅心,以每1秒的速度消減0.5顆紅心\n\n名稱\nstrong_poison\n數據值:8228"
    },
    {
      "file_name": "chihuangyaoshui.png",
      "name": "遲緩藥水",
      "material": "跳躍藥水或迅捷藥水 + 發酵蛛眼",
      "use": "三級藥水\n在特定的時間裡將玩家的移動減緩至潛行的速度",
      "detail": "持久時間 1:30\n\n降低15%移動速度.(疾跑每秒4.75格)\n\n名稱\nslowness\n數據值:8202"
    },
    {
      "file_name": "zhengchangshijiang.png",
      "name": "遲緩藥水(延長版)",
      "material": "遲緩藥水 或 遲緩藥水(還原) + 紅石粉",
      "use": "三級藥水\n在特定的時間裡將玩家的移動減緩至潛行的速度",
      "detail": "持久時間 3:00\n(wiki有的地方寫的4:00)\n\n降低15%移動速度.(疾跑每秒4.75格)\n\n名稱\nlong_slowness\n數據值:8266"
    },
    {
      "file_name": "chihuangyaoshui.png",
      "name": "遲緩藥水(延長版)",
      "material": "跳躍藥水(延長版)或迅捷藥水(延長版) + 發酵蛛眼",
      "use": "三級藥水\n在特定的時間裡將玩家的移動減緩至潛行的速度",
      "detail": "持久時間 3:00\n(wiki有的地方寫的4:00)\n\n降低15%移動速度.(疾跑每秒4.75格)\n\n名稱\nlong_slowness\n數據值:8266"
    },
    {
      "file_name": "chihuangyaoshui.png",
      "name": "虛弱藥水",
      "material": "力量藥水或再生藥水 + 發酵蛛眼",
      "use": "三級藥水\n對所有的近身攻擊減少2顆紅心的傷害",
      "detail": "持久時間 1:30\n\n減少0.25顆紅心的近戰傷害.[僅限主機和攜帶版]\n\n名稱\nweakness\n數據值:8200"
    },
    {
      "file_name": "chihuangyaoshui.png",
      "name": "虛弱藥水(延長版)",
      "material": "力量藥水(延長版)或再生藥水(延長版) + 發酵蛛眼",
      "use": "三級藥水\n對所有的近身攻擊減少2顆紅心的傷害",
      "detail": "持久時間 4:00\n\n減少0.25顆紅心的近戰傷害.[僅限主機和攜帶版]\n\n名稱\nlong_weakness\n數據值:8264"
    },
    {
      "file_name": "zhengchangshijiang.png",
      "name": "虛弱藥水(延長版)",
      "material": "虛弱藥水 或 虛弱藥水(還原) + 紅石粉",
      "use": "三級藥水\n對所有的近身攻擊減少2顆紅心的傷害",
      "detail": "持久時間 4:00\n\n減少0.25顆紅心的近戰傷害.[僅限主機和攜帶版]\n\n名稱\nlong_weakness\n數據值:8264"
    },
    {
      "file_name": "huangyuangshijiang.png",
      "name": "抗火藥水(還原)",
      "material": "抗火藥水(延長版) + 螢石粉",
      "use": "還原藥水\n給予對火,熔岩,和烈焰人的遠距離攻擊的免疫力",
      "detail": "持久時間 3:00\n\n在1.9快照15w31a之前,藥水有一種形式被稱為'還原'.\n在物品欄裡,除了變成還原藥水而不是它們的基本藥水.\n還原藥水看起來與它們的基本藥水相同,很像平凡藥水和平凡藥水(延長),它們的用法也與它們的基本藥水相同."
    },
    {
      "file_name": "huangyuangshijiang.png",
      "name": "遲緩藥水(還原)",
      "material": "遲緩藥水(延長版) + 螢石粉",
      "use": "還原藥水\n在特定的時間裡將玩家的移動減緩至潛行的速度",
      "detail": "持久時間 1:30\n\n在1.9快照15w31a之前,藥水有一種形式被稱為'還原'.\n在物品欄裡,除了變成還原藥水而不是它們的基本藥水.\n還原藥水看起來與它們的基本藥水相同,很像平凡藥水和平凡藥水(延長),它們的用法也與它們的基本藥水相同."
    },
    {
      "file_name": "huangyuangshijiang.png",
      "name": "虛弱藥水(還原)",
      "material": "虛弱藥水(延長版) + 螢石粉",
      "use": "還原藥水\n對所有的近身攻擊減少2顆紅心顆紅心的傷害",
      "detail": "持久時間 1:30\n\n在1.9快照15w31a之前,藥水有一種形式被稱為'還原'.\n在物品欄裡,除了變成還原藥水而不是它們的基本藥水.\n還原藥水看起來與它們的基本藥水相同,很像平凡藥水和平凡藥水(延長),它們的用法也與它們的基本藥水相同."
    },
    {
      "file_name": "huangyuangshijiang.png",
      "name": "水肺藥水(還原)",
      "material": "水肺藥水(延長版) + 螢石粉",
      "use": "還原藥水\n在水下時不會消耗氧氣條,且在水下的視野會更清晰",
      "detail": "持久時間 3:00\n\n在1.9快照15w31a之前,藥水有一種形式被稱為'還原'.\n在物品欄裡,除了變成還原藥水而不是它們的基本藥水.\n還原藥水看起來與它們的基本藥水相同,很像平凡藥水和平凡藥水(延長),它們的用法也與它們的基本藥水相同."
    },
    {
      "file_name": "huangyuanyiji.png",
      "name": "治療藥水(還原)",
      "material": "治療藥水II + 紅石粉",
      "use": "還原藥水\n每瓶恢復2顆紅心生命值",
      "detail": "持久時間 瞬間\n\n在1.9快照15w31a之前,藥水有一種形式被稱為'還原'.\n在物品欄裡,除了變成還原藥水而不是它們的基本藥水.\n還原藥水看起來與它們的基本藥水相同,很像平凡藥水和平凡藥水(延長),它們的用法也與它們的基本藥水相同."
    },
    {
      "file_name": "huangyuanyiji.png",
      "name": "傷害藥水(還原)",
      "material": "傷害藥水II + 紅石粉",
      "use": "還原藥水\n給予3顆紅心的傷害",
      "detail": "持久時間 瞬間\n\n在1.9快照15w31a之前,藥水有一種形式被稱為'還原'.\n在物品欄裡,除了變成還原藥水而不是它們的基本藥水.\n還原藥水看起來與它們的基本藥水相同,很像平凡藥水和平凡藥水(延長),它們的用法也與它們的基本藥水相同."
    },
    {
      "file_name": "chihuangyaoshui.png",
      "name": "傷害藥水(還原)",
      "material": "治療藥水(還原)或劇毒藥水(還原) + 發酵蛛眼",
      "use": "還原藥水\n給予3顆紅心的傷害",
      "detail": "持久時間 瞬間\n\n在1.9快照15w31a之前,藥水有一種形式被稱為'還原'.\n在物品欄裡,除了變成還原藥水而不是它們的基本藥水.\n還原藥水看起來與它們的基本藥水相同,很像平凡藥水和平凡藥水(延長),它們的用法也與它們的基本藥水相同."
    },
    {
      "file_name": "chihuangyaoshui.png",
      "name": "遲緩藥水(還原)",
      "material": "抗火藥水(還原)或迅捷藥水II + 發酵蛛眼",
      "use": "還原藥水\n在特定的時間裡將玩家的移動減緩至潛行的速度",
      "detail": "持久時間 1;30\n\n在1.9快照15w31a之前,藥水有一種形式被稱為'還原'.\n在物品欄裡,除了變成還原藥水而不是它們的基本藥水.\n還原藥水看起來與它們的基本藥水相同,很像平凡藥水和平凡藥水(延長),它們的用法也與它們的基本藥水相同."
    },
    {
      "file_name": "chihuangyaoshui.png",
      "name": "虛弱藥水(還原)",
      "material": "力量藥水II或再生藥水II + 發酵蛛眼",
      "use": "還原藥水\n所有的近身攻擊減少2顆紅心的傷害",
      "detail": "持久時間 1:30\n\n在1.9快照15w31a之前,藥水有一種形式被稱為'還原'.\n在物品欄裡,除了變成還原藥水而不是它們的基本藥水.\n還原藥水看起來與它們的基本藥水相同,很像平凡藥水和平凡藥水(延長),它們的用法也與它們的基本藥水相同."
    },
    {
      "file_name": "pengjiangyaoshui.png",
      "name": "噴濺藥水",
      "material": "火藥 + 任何藥水",
      "use": "藥水的可投擲變種",
      "detail": "噴濺藥水(Splash Potions)\n\n向普通藥水加入火藥能釀造噴濺藥水\n\n一瓶噴濺虛弱藥水能在雪屋地下室的釀造台被發現.\n\n噴濺藥水能通過使用來丟出.當它們爆炸時,會對周圍的生物施加狀態效果\n\n不像可飲用的藥水,瓶子將會在使用後丟失,投擲中心前後左右四個方塊或以內的實體會受到影響\n\n噴濺藥水的持續時間與正常藥水相同.[僅限電腦版]\n\n實體受到的影響隨距離增大而減少.\n\n如果是像瞬間治療和瞬間傷害的瞬間效果,受到的影響為中心的100%線性減少到4個方塊外的0%\n如果是有時長的效果, 效果保持不變但時間會線性減少,精確到1⁄20秒.如果時長在1秒以內則沒有效果\n\n噴濺型水瓶對實體沒有效果,但會撲滅扔中的方塊和圍着它水平四格內的火.噴濺型水瓶只出現在PC版與攜帶版.\n\n噴濺型水瓶也會對烈焰人和末影人造成0.5顆紅心的傷害.但是如果噴濺型水瓶直接砸中末影人,末影人則會瞬移,並沒有任何效果.\n\n如果玩家被傷害藥水殺死,那麼他的死亡消息就會是：<玩家> 被魔法殺死了\n\n丟出的噴濺藥水擁有定義實體各種屬性的實體數據,它們的實體ID是potion.\n在攜帶版中,這是一個不同於丟出的滯留藥水實體.在電腦版中,它們是相同的實體,並且保存Potion標籤取決於這是個噴濺藥水還是滯留藥水.\n\n數據值\nDEC: 438 HEX: 1B6 BIN: 110110110\n名稱\nsplash_potion"
    },
    {
      "file_name": "zhiliuyaoshui.gif",
      "name": "滯留藥水",
      "material": "龍息 + 任何噴濺藥水",
      "use": "可拋擲變種\n且會在地面留下狀態效果區域的藥水",
      "detail": "滯留藥水(Lingering Potion)還可以合成藥箭.\n\n滯留藥水與噴濺藥水一樣,可以按使用物品來丟出.遇到撞擊則會爆裂,創造出一片雲.雲由漸漸聚攏到落地點的藥水顆粒組成\n雲一開始的半徑為3方塊,在30秒內下降到0.在雲沒有消失之前,任何玩家或生物進入一秒內會得到狀態效果；當效果被賦予,雲的半徑會立即減少0.5方塊,使得雲的消失變快\n\n有關於效果的持續時間, 雲賦予實體的效果的時間是相應的藥水的1⁄4時長\n\n對於沒有時間的藥水,例如瞬間治療與瞬間傷害,藥水的效力會減到原來對應藥水的1⁄2\n\n滯留藥水與噴濺藥水一樣,可以從發射器中發射\n\n對煉藥鍋使用滯留藥水可將其倒入煉藥鍋中,並將煉藥鍋的水位提升1級.[僅限攜帶版]\n\n如果往盛有水、染色的水或不同類型藥水的煉藥鍋中倒入滯留藥水,則煉藥鍋會被清空.且產生一段爆炸聲效(但不會有實際的爆炸)\n\n龍息可以通過在末影龍進行龍息攻擊時在其中或附近使用玻璃瓶獲取.\n\n'丟出的藥水'具有定義實體的各種屬性的實體數據.它們的實體ID是potion.\n\n區分滯留藥水和噴濺藥水的因素是Potion標籤中儲存的minecraft:lingering_potion條目.[僅限PC版]\n\n在攜帶版中,丟出的滯留藥水和噴濺藥水是完全獨立的兩個實體.\n\n數據值\nDEC: 441 HEX: 1B9 BIN: 110111001\n名稱\nlingering_potion"
    }
  ]
}
