﻿{
  "category": "附魔",
  "blocks": [
    {
      "file_name": "fumojieshao.png",
      "name": "附魔介紹",
      "material": " ",
      "use": "附魔會給盔甲,工具和武器添加特殊能力與效果.\n本列表說明:\n主物品：可以在附魔台上獲得此魔咒的物品\n副物品：可以通過鐵砧或牧師村民獲得魔咒\n每個魔咒和自己相衝突\n所以你不能得到一個有兩個相同魔咒的工具",
      "detail": "附魔(Enchanting)\n\n目前存在着附魔物品的方法:\n通過消耗經驗值和1~3個青金石在附魔台內附魔物品\n通過鐵砧：結合已存在附魔的相同物品來集中魔咒,增強魔咒,或添加魔咒,此方法也會消耗經驗\n通過鐵砧：結合物品和附魔書來附魔,此方法也會消耗經驗\n通過消耗綠寶石與村民交易來獲得附魔的物品\n通過命令附魔——伺服器上的管理員也可以通過/enchant命令來附魔物品\n通過/give命令附魔\n\n要想附魔一樣物品,最簡單的辦法就是通過附魔台附魔,玩家可以通過對著附魔台右擊來打開一個有兩個物品槽的界面(1.8前沒有青金石槽,無需消耗青金石)\n\n當將物品放入物品槽內時三個隨機的選項將在界面的右方出現.每個選項內出現的字元都是隨機的而且沒有實際意義,真正有意義的是每個選項所要花費的等級和青金石\n\n只有等於或低於玩家目前等級的選項能夠被選擇.每個選項將給予取決於所耗經驗的魔咒列表\n所耗的經驗將影響物品將獲得的魔咒的質量,種類,和等級,更多的經驗一般會給予更多以及更強的魔咒\n\n儘管如此,隨機性的影響還是很大,即使是最高級的30級魔咒也無法保證你能獲得1個以上的魔咒,或者無法獲得那個魔咒的最強狀態\n例如30級的附魔還是有可能只給予效率III或時運II\n\n給一本書附魔將給予一本附魔書,採用的是同樣的機制\n\n一般來說,花費儘可能多的經驗來附魔是合情合理的,因為當你經驗比較低時恢復的速度更快.經驗等級越高升級所需要的經驗值也就越高\n\n例如當你在2級時獲得2級附魔的時候你實際耗損了34點經驗值,但當你在20級時你將實際耗損55點經驗值\n\n1.8之後附魔需要等級不變,但消耗等級縮小為1級、2級、3級(只要到達了附魔基礎等級).\n同時需要等量的青金石.並且滑鼠放在魔咒上時可以看到將要獲得的其中一項附魔屬性,同時在該魔咒附魔之前,有能夠獲得附魔種類相同的物品放到附魔台上後,\n該項附魔不會改變,只會隨着工具材料的不同,魔咒的等級可能發生變化\n\n鐵砧和附魔書都是附魔用的物品"
    },
    {
      "file_name": "fumoshu.png",
      "name": "附魔書",
      "material": " ",
      "use": "用來給特定物品添加魔咒的物品",
      "detail": "附魔書(Enchanted Book)可以通過在附魔台對書附魔獲得\n\n可以在世界中生成的箱子中找到,\n也可以用綠寶石向圖書管理員村民(白色衣服)收購,\n或者使用附魔台獲得,在1.7.2以後也可以通過釣魚獲得\n\n它們可用於給物品添加魔咒,包括一些無法通過附魔台附魔的物品.\n這可以和結合物品一樣在鐵砧上完成,\n但書替代了犧牲用的物品的位置\n\n使用書來獲得同樣的魔咒所需要的經驗要比結合物品的所要少得多\n\n因為附魔書本身的創造也是需要花費經驗的.\n\n然而附魔的物品需要花費材料和經驗,加上有可能獲得多個魔咒\n因此只使用書來製造附魔物品是很浪費經驗的,而且使用此方法也不會同時修復物品,不過重命名還是可以做到的\n\n一些附魔書能給予物品一些無法在附魔台上獲得的魔咒(例如：給剪刀耐久,給靴子荊棘)\n\n圖書管理員(白色長袍村民)可以給書附魔成為附魔書.這些附魔書可能帶有任何等級的附魔\n牧師(紫色長袍村民)能給鐵或鑽石的劍,鎬,斧,和胸甲附魔.\n1.8之後,牧師將不再提供物品附魔交易\n1.8之後,鐵匠(黑色圍裙村民)可以出售附魔的鐵鎬、鐵鍬、鑽石鎬、鐵劍、鑽石劍、鑽石斧、鑽石胸甲.這些物品會隨機附帶5-19級的附魔\n1.8之後,屠夫(白色圍裙村民)可以出售附魔的皮革外套,隨機附帶5-19級的附魔\n\n\n30級附魔書\n附魔書會在2.5%的要塞祭壇的箱子裡,72.2%的要塞圖書館的箱子裡,5.4%的叢林神廟的箱子裡,以及4.0%的要塞儲藏室的箱子裡,皆以1份為一組的形式出現.\n\n附魔幾率與附魔台上的30級附魔相同,但包含寶藏魔咒且多重附魔的幾率沒有削減.\n\n隨機附魔書\n附魔書會在23.7%的沙漠神殿的箱子裡,15.1%的地牢的箱子裡,14.1%的廢棄礦井的運輸礦車裡,以及15.1%的林地府邸的箱子裡,皆以1份為一組的形式出現.\n\n這種附魔書帶有1個魔咒,魔咒的類型出現幾率相等、等級出現幾率相等.\n\n釣魚\n附魔書可以作為“寶藏”物品通過釣魚獲得.\n附魔幾率與附魔台上的30級附魔相同,但包含寶藏魔咒且多重附魔的幾率沒有削減.\n\n交易\n圖書管理員村民的1、4、5級交易中包含附魔書的銷售,這意味着每個村民會販賣最多3本附魔書.售價在5-64個綠寶石之間,售價只根據附魔等級而定(比方說,無限I 和保護I 都花費5-19個綠寶石),不過像經驗修補這樣的寶藏魔咒是雙倍售價.\n村民銷售的附魔書含有所有種類、所有等級的附魔.\n\n玩家可以在附魔台給書附魔來製作附魔書. \n一本書獲得多重附魔的幾率較低,因為將要生成多個魔咒時會隨機移除其中一個,並且書附到的魔咒的等級比大多數物品低.\n寶藏魔咒無法從附魔台獲得.\n\n在生存模式中,附魔書是某些工具附上特定魔咒的唯一途徑,例如為盾牌附上耐久魔咒.\n附魔書擁有一種附魔的光芒.\n\n要使用附魔書,玩家需要在鐵砧界面的第一欄放入待附魔物品(或者要合併得到的附魔書),第二欄放入要犧牲的附魔書.\n完成此過程還需要消耗經驗,但相比附魔台附魔的消耗要少很多.\n\n附魔書可以進行合併,得到一本更高等級或有更多魔咒的附魔書,與附魔工具和武器的合併操作類似.\n\n使用附魔書開始附魔時,可被待附魔物品接受的魔咒從附魔書轉移到物品上.\n若待附魔物品和附魔書之間存在相同種類的魔咒,則取等級高的魔咒；\n若二者共有的魔咒等級相同且非最高等級,則合併為一個高一等級的魔咒.\n如果附魔書擁有待附魔物品不能接受的魔咒,則不能接受的部分會喪失,可接受的部分正常轉移.\n\n附魔書是一次性的.\n\n附魔書記載的魔咒並不會對附魔書本身有任何加成效果.\n例如,帶有鋒利 IV 魔咒的附魔書並不會比普通書(或者其它非武器物品)造成更多傷害.\n\n創造模式\n玩家可以對任何物品或方塊附上任何魔咒,並使其產生效果.\n例如,木棍附上精準採集魔咒便可以成功採集草方塊.\n即使切換回生存模式,物品的這些能力也不會丟失.\n\n相互衝突的魔咒仍然無法共存.\n例如,保護魔咒和爆炸保護魔咒仍然不能附在同一件物品上.\n\n若方塊被附魔,則其在被放置後失去魔咒.\n\n當通過 /give命令獲得附魔書時,如果你的命令不包含任何已有的魔咒類型,附魔書將不會帶有任何魔咒,但是還是會像被附魔了一樣發出光芒.\n\n附魔書的物品 ID 為 403,ID 名稱為minecraft:enchanted_book.\n附魔書使用物品數據值存放其記載的魔咒.\n\n數據值\nDEC: 403 HEX: 193 BIN: 110010011\n名稱\nenchanted_book"
    },
    {
      "file_name": "quantaokuijia_zhuwuping.png",
      "name": "保護",
      "material": "最高等級 IV",
      "use": "減少多數的傷害\n所有保護類魔咒相互衝突",
      "detail": "保護(Protection)減少所有傷害\n\n例外：不會減少虛空,命令/kill,饑餓,窒息,藥水,尖牙的傷害.\n\n來自保護、火焰保護、摔落保護、爆炸保護和彈射物保護魔咒的傷害減免效果具有疊加上限(詳見盔甲).\n\nID:0"
    },
     {
      "file_name": "quantaokuijia_zhuwuping.png",
      "name": "火焰保護",
      "material": "最高等級 IV",
      "use": "減少火焰傷害\n所有保護類魔咒相互衝突",
      "detail": "火焰保護(Fire Protection)\n\n火焰保護同時會減免目前持續受到火焰傷害,這些傷害正常情況下不會受盔甲減免.\n\n同時減免燃燒時間的(15 × 等級)%.若多個盔甲均擁有此魔咒,燃燒時間的降低僅取自等級最高者.\n\n假如擁有 VII 級的火焰保護魔咒,玩家將不會被火點燃.\n燃燒自身的唯一途徑是處于熔岩或火源中.\n初始火焰刻(熔岩為300,火為150)會被抵消,火源的剩餘時間才會被算入火焰刻計數器內.\n\n來自保護、火焰保護、摔落保護、爆炸保護和彈射物保護魔咒的傷害減免效果具有疊加上限(詳見盔甲).\n\nID:1"
    },
     {
      "file_name": "zhuangshixuezhi_zhuwuping.png",
      "name": "摔落保護",
      "material": "最高等級 IV",
      "use": "減少摔落傷害\n摔落保護是一種保護類魔咒\n但它不與其他保護類魔咒發生衝突",
      "detail": "摔落保護(Feather Falling)\n\n同時減少來源於末影珍珠的傳送傷害.\n\n來自保護、火焰保護、摔落保護、爆炸保護和彈射物保護魔咒的傷害減免效果具有疊加上限(詳見盔甲).\n\nID:2"
    },
     {
      "file_name": "quantaokuijia_zhuwuping.png",
      "name": "爆炸保護",
      "material": "最高等級 IV",
      "use": "減少爆炸傷害\n所有保護類魔咒相互衝突",
      "detail": "爆炸保護(Blast Protection)\n\n同時減免爆炸擊退效果的(等級 × 15)%.若多個盔甲均擁有此魔咒,擊退效果的降低僅取自等級最高者.\n\n來自保護、火焰保護、摔落保護、爆炸保護和彈射物保護魔咒的傷害減免效果具有疊加上限(詳見盔甲).\n\nID:3"
    },
    {
      "file_name": "quantaokuijia_zhuwuping.png",
      "name": "彈射物保護",
      "material": "最高等級 IV",
      "use": "減少來源於彈射物的傷害\n所有保護類魔咒相互衝突",
      "detail": "彈射物保護(Projectile Protection)減少來源於彈射物的傷害(弓箭、惡魂/烈焰人的火球,等等)\n\n來自保護、火焰保護、摔落保護、爆炸保護和彈射物保護魔咒的傷害減免效果具有疊加上限(詳見盔甲).\n\nID:4"
    },
    {
      "file_name": "zhuangshitoukui_zhuwuping.png",
      "name": "水下呼吸",
      "material": "最高等級 III",
      "use": "延長水下呼吸時間",
      "detail": "水下呼吸(Respiration)\n\n每等級增加15秒的水下呼吸時間\n每等級窒息傷害的間隔增加1秒\n溺水時每秒有x/(x+1)的幾率免除溺水傷害,其中x為魔咒等級\n增強水下視野\n如果等級高於III級,因為高於100%的水下視野會導致視線一片慘白\n\nID:5(攜帶版：6)"
    },
    {
      "file_name": "zhuangshitoukui_zhuwuping.png",
      "name": "水下速掘",
      "material": "最高等級 I",
      "use": "加快水下挖掘速度",
      "detail": "水下速掘(Aqua Affinity)\n\n水下挖掘的速度將保持在正常速度,但對漂浮狀態的玩家效果仍會有所折扣,使挖掘時間變為正常時間的5倍.高於1的等級沒有區別.\n\nID:6(攜帶版：8)"
    },
    {
      "file_name": "zhukuijia_fusangjiangquangjiafu.png",
      "name": "荊棘",
      "material": "最高等級 III",
      "use": "給予攻擊者造成反彈傷害",
      "detail": "荊棘(Thorns)\n\n有(等級*15)%的幾率將反饋1~4(0.5顆紅心~2顆紅心)(或者當等級>10時,等級-10)的傷害給攻擊者\n無論其攻擊方式為近戰、弓箭還是其它彈射物\n\n成功反饋傷害後,會消耗3點盔甲的耐久值,未反傷或其他情況則只消耗1點\n\n若多個盔甲擁有此魔咒,則每一部位的盔甲會輪流進行荊棘效果結算,但荊棘傷害帶來的額外耐久度消耗會隨機分配到其中一個盔甲上.\n\nID:7(攜帶版：5)"
    },
    {
      "file_name": "zhuangshixuezhi_zhuwuping.png",
      "name": "深海探索者",
      "material": "最高等級 III",
      "use": "增加水下行走速度\n深海探索者和冰霜行者互相衝突",
      "detail": "深海探索者(Depth Strider)\n\n每等級減少水下行走減速效果的1/3\n同時減少玩家站立不動時被水流推動的速度.\nIII級的效果將使玩家游泳及水下行走的速度與在陸地行走的速度相同\n在III級附魔的效果下,迅捷藥水對游泳的速度加成與正常行走的速度加成相同\n不會增加垂直方向的速度\n如果通過命令在其他盔甲上擁有此附魔,效果也會生效\nIV或以上等級的效果將會等同於III級,沒有更高的加成\n\n若盔甲架上的盔甲擁有深海探索者魔咒,則盔甲架被水流推動的速度變慢.\n\n深海探索者和冰霜行者魔咒相互排斥.當使用命令將其組合在同一個物品上時,這兩個魔咒會同時正常生效.\n\nID:8(攜帶版：7)"
    },
    {
      "file_name": "zhuangshixuezhi_fuwuping.png",
      "name": "冰霜行者",
      "material": "最高等級 II",
      "use": "在水上行走時產生霜冰\n深海探索者和冰霜行者互相衝突",
      "detail": "冰霜行者(Frost Walker)\n\n如果站在一個固體方塊上(不能是在固體方塊的裡面,不處于掉落、跳躍或飛行狀態),任何與玩家腳底下方塊同高的半徑(等級+2)內的所有暴露在空氣下的靜水方塊(包括流動水)都會變成霜冰\n\n穿戴者在岩漿塊上不會受到傷害\n\n屬於寶藏型附魔,只能通過寶箱、釣魚或交易獲得\n\n盔甲架上的靴子擁有此魔咒時,會對盔甲架附近的區域起作用.\n\n深海探索者和冰霜行者魔咒相互排斥.當使用命令將其組合在同一個物品上時,這兩個魔咒會同時正常生效.\n\nID:9(攜帶版:25)"
    }, 
    {
      "file_name": "quantaokuijia_fuwuping.png",
      "name": "綁定詛咒",
      "material": "最高等級 I",
      "use": "使被詛咒物品無法被丟棄",
      "detail": "綁定詛咒(urse of Binding)會使道具會永遠綁定在玩家身上,使玩家無法丟棄他們,\n\n如果是裝備則無法取下它們,只有當玩家死亡時才會掉落(創造模式中的玩家不受影響)\n\n屬於寶藏魔咒——只能通過箱子、釣魚和交易附魔書獲得.\n\nID:10(攜帶版：N/A)"
    },{
      "file_name": "zhukuijia_fufu.png",
      "name": "鋒利",
      "material": "最高等級 V",
      "use": "增加輸出傷害\n鋒利、亡靈殺手和節肢殺手相互衝突",
      "detail": "鋒利(Sharpness)\n\n鋒利I額外增加了0.5顆紅心的傷害,後面的每增加一級只額外增加0.25的傷害\n\n木質、石質、鐵質和鑽石質工具需要使用鐵砧來達到等級 V.金質工具可以直接附魔得到等級 V.\n\n鋒利、亡靈殺手和節肢殺手魔咒相互排斥.當使用命令將其組合在同一個物品上時,這些效果會疊加.\n\nID:16(攜帶版：9)"
    },{
      "file_name": "zhukuijia_fufu.png",
      "name": "亡靈殺手",
      "material": "最高等級 V",
      "use": "對亡靈生物造成額外傷害\n(殭屍,殭屍豬人,骷髏,凋靈骷髏和凋靈)\n鋒利、亡靈殺手和節肢殺手相互衝突",
      "detail": "亡靈殺手(Smite)\n\n每等級增加2.5(1.25顆紅心)的額外傷害,僅對亡靈生物有效\n\n鋒利、亡靈殺手和節肢殺手魔咒相互排斥.當使用命令將其組合在同一個物品上時,這些效果會疊加.\n\nID:17(攜帶版：10)"
    },
    {
      "file_name": "zhukuijia_fufu.png",
      "name": "節肢殺手",
      "material": "最高等級 V",
      "use": "對節肢生物造成額外傷害\n(蜘蛛,洞穴蜘蛛,蠹蟲和末影蟎)\n鋒利、亡靈殺手和節肢殺手相互衝突",
      "detail": "節肢殺手(Bane of Arthropods)\n\n每等級增加2.5(一顆紅心 × 1又1⁄4)的額外傷害\n造成傷害時,節肢生物還會獲得緩慢IV效果,效果持續時間在1級時為1~1.5秒隨機時間,每等級持續時間增加0.5秒\n注意：遲緩效果只要在造成傷害的時候持有擁有該附魔的劍即可\n\n鋒利、亡靈殺手和節肢殺手魔咒相互排斥.當使用命令將其組合在同一個物品上時,這些效果會疊加.\n\nID:18(攜帶版：11)"
    },
   {
      "file_name": "zhuangshijiang_zhuwuping.png",
      "name": "擊退",
      "material": "最高等級 II",
      "use": "增加擊退的距離",
      "detail": "擊退(Knockback)\n\n每等級增加3個方塊的擊退效果.疾跑所造成的擊退會稍微增強這個效果\n\nID:19(攜帶版：12)"
    },
    {
      "file_name": "zhuangshijiang_zhuwuping.png",
      "name": "火焰附加",
      "material": "最高等級 II",
      "use": "使目標着火",
      "detail": "火焰附加(Fire Aspect)\n\n對目標每等級增加80火焰刻(着火4秒),但第一次傷害來源於物品攻擊,因此第一下火焰傷害不會計算.\n\n目標在 I/II 級分別受到 1.5顆紅心/3.5顆紅心 傷害. \n火焰傷害可以通過以下公式計算：以0.5顆紅心為單位的火焰傷害 = (等級*4)-1\n\n生物在着火時死亡,掉落的肉會是熟的\n但只有在生物死亡前5秒內,玩家對該生物造成過非火屬性的傷害,XP經驗才會掉落\n\n火焰附加和火矢魔咒對除普通骷髏外的所有下界生物無效,這是因為下界生物都免疫火焰和熔岩.\n\nID:20(攜帶版：13)"
    },
    {
      "file_name": "zhuangshijiang_zhuwuping.png",
      "name": "搶奪",
      "material": "最高等級 III",
      "use": "生物能掉落更多物品",
      "detail": "搶奪(Looting)\n\n每一級使大部分常見掉落物的數量上限+1.\n\n少見掉落物的首次掉落失敗後再次進行掉落嘗試,從而提高其掉落幾率.\n第二次掉落嘗試的成功幾率為 I 級½,II 級⅔, III 級¾.\n\n每等級增加1%獲得稀有掉落物的幾率(預設幾率為2.5%)I 級為3.5%,II 級為4.5%,III 級為5.5%)\n\n當生物死亡時主手持有擁有搶奪附魔的武器,就會觸發搶奪效果\n此魔咒的效果不僅僅影響由搶奪劍造成的擊殺,而是影響玩家主手持握搶奪劍時造成的所有擊殺.例如,玩家可以射出一個彈射物,然後在彈射物擊殺目標前切換到搶奪劍,或主手持握搶奪劍時使用副手發射彈射物擊殺目標來得到搶奪效果.\n\n額外掉落幾率取決於掉落的物品類型\n\n搶奪魔咒不會對羊毛、下界之星、蜘蛛眼(不包括擊殺女巫獲得的蜘蛛眼)、生兔肉和熟兔肉產生效果....(這個介紹突然沒了)\n\n使用命令獲得高於3級的魔咒會正常工作,高出的等級部分數值計算權重為1.\n然而過高的等級(如1000級)可能會產生過多的物品實體而導致遊戲崩潰.\n\n此魔咒影響被橫掃攻擊擊殺的生物.\n\nID:21(攜帶版：14)"
    },
     {
      "file_name": "zhuangshijiang_zhuwuping.png",
      "name": "橫掃之刃",
      "material": "最高等級 III",
      "use": "增加橫掃傷害",
      "detail": "橫掃之刃(Sweeping Edge)\n\n增加對生物的每個橫掃攻擊的傷害\n\nI/II/III 級魔咒加成後的傷害輸出分別為基礎傷害的(50% + 1)/(66.666...% + 1)/(75% + 1).\n傷害計算公式為 基礎傷害×魔咒等級/(魔咒等級+1) + 1\n\nID:22(攜帶版：N/A)"
    },
    {
      "file_name": "zhugaoqiufu_fujiangdao.png",
      "name": "效率",
      "material": "最高等級 V",
      "use": "加快資源採集速度",
      "detail": "效率(Efficiency)\n\n在上一級的基礎上增加+30%挖掘速度：I=130%,II=169%,III=220%,IV=286%,V=371%\n\n挖掘的方塊與工具相匹配時才能獲得速度加成.與工具的材質等級是否匹配無關.\n\n此魔咒只會對相應的方塊起作用(例如附有效率的鎬不對泥土起作用)\n石質和鑽石質工具需要使用鐵砧來達到等級 V.木質、金質和鐵質工具可以直接附魔得到等級 V.\n\n1.9之後斧的效率等級會影響用來PVP時使對方破防(無法使用盾牌防禦)的幾率\n\nID:32(攜帶版：15"
    },
    {
      "file_name": "gaoqiaofu_zhuwuping.png",
      "name": "精準採集",
      "material": "最高等級 I",
      "use": "被挖掘的方塊會掉落它們的本體而不是應該掉落的物品\n精準採集和時運互相衝突",
      "detail": "精準採集(Silk Touch)與時運是互斥的\n\n可以獲得普通情況下無法獲得的方塊\n\n只能通過精準採集魔咒而合理獲得的方塊有：煤礦石、鑽石礦石、綠寶石礦石、草方塊、大型蘑菇、冰、青金石礦石、菌絲、灰化土、草徑[僅限攜帶版]、浮冰、霜冰[僅限主機版]、下界石英礦石和紅石礦石.除此之外,末影箱、書架、玻璃和玻璃板在放置後只能通過精準採集工具回收.\n\n1.8之後,樹葉、西瓜也可以通過具有精準採集魔咒的工具採集\n\n對以下方塊無效：蛋糕、胡蘿蔔、可可果、雙台階、火、霜冰[僅限PC和攜帶版]、耕地、草徑[僅限PC和主機版]、西瓜梗、刷怪箱、地獄疣、土豆、南瓜梗、雪、甘蔗、小麥和夜光感測器.\n\n使用精準採集魔咒的工具挖掘沙礫將不會掉落燧石\n.這是由於精準採集魔咒完全繞過了掉落物的隨機過程.\n\n使用精準採集開採怪物蛋時不會出現蠹蟲\n玩家只會獲得對應的普通方塊,而非怪物蛋.\n\n精準採集和時運魔咒相互排斥.當使用命令將其組合在同一個物品上時,對於同時受二者影響的方塊,精準採集魔咒優先於時運魔咒.\n\nID:33(攜帶版：16)"
    },
    {
      "file_name": "quangjiafudier.png",
      "name": "耐久",
      "material": "最高等級 III",
      "use": "減緩物品的損耗",
      "detail": "耐久(Unbreaking)\n\n對於多數物品,每次使用只有(100/(等級+1))%的幾率消耗耐久度.平均上物品壽命為原來的(等級+1)倍.\n\n對於盔甲,每次使用只有(60 + (40/(等級+1)))%的幾率消耗耐久度(每次擊中耐久盔甲會有20%/27%/30%幾率無法損耗盔甲).平均上盔甲命為原來的25%/36%/43%.\n\n當耐久損耗超過1點時(例如勾住生物的釣魚竿或荊棘盔甲),耐久魔咒會對分別每1點耐久損耗作出結算.\n\n1.7以後,所有可附魔的物品都有機會附魔到耐久附魔\n\nID:34(攜帶版：17)"
    },
    {
      "file_name": "gaoqiaofu_zhuwuping.png",
      "name": "時運",
      "material": "最高等級 III",
      "use": "增加方塊掉落\n精準採集和時運互相衝突",
      "detail": "時運(Fortune)\n\n精準採集與時運是互斥的\n\n對於煤炭、鑽石、綠寶石、下界石英、青金石：\nI 級有33%的幾率將掉落物數量乘以2(平均掉落增加33%)\nII 級有幾率將掉落物數量乘以2或3(各25%幾率,平均掉落增加75%)\nIII 級有幾率將掉落物數量乘以2、3或4(各20%幾率,平均掉落增加120%)\n未生效前方塊只掉落1個物品時,額外權重為2,此外額外掉落的物品額外權重均為1.\n\n像搶奪附魔一樣,如果等級過大,有可能會導致卡頓並崩潰\n\n對於紅石、胡蘿蔔、螢石、西瓜、地獄疣、小麥(僅限種子)：每等級掉落上限+1(螢石的上限為4,西瓜的上限為9)\n對於草叢,每一級使掉落數量最大值+2.\n\n時運魔咒提高沙礫中獲得燧石、樹葉中獲得樹苗、橡樹和深色橡樹樹葉中獲得蘋果的概率.\n\n精準採集和時運魔咒相互排斥.當使用命令將其組合在同一個物品上時,對於同時受二者影響的方塊,精準採集魔咒優先於時運魔咒.\n\n在直接給鑽石鎬進行30級附魔時，有8.0%的概率得到時運III.\n\nID:35(攜帶版:18)"
    },
    {
      "file_name": "gong_zhuwuping.png",
      "name": "力量",
      "material": "最高等級 V",
      "use": "增加輸出傷害",
      "detail": "力量(Power)\n\n箭的傷害提升25% ×(等級+1),向上取整至最近的半心.\n\n箭矢實體擁有NBT標籤damage,無魔咒弓此值為2,每一級會將此值累加0.5.\n\n從無等級拉滿弦(會心一擊,完全蓄力,暴擊)造成10(5顆紅心)傷害\n到最高等級V的拉滿弦(會心一擊,完全蓄力,暴擊)造成25(12.5顆紅心)傷害\n\n需要使用鐵砧來達到等級 V.\n\nID:48(攜帶版：19"
    },
    {
      "file_name": "gong_zhuwuping.png",
      "name": "衝擊",
      "material": "最高等級 II",
      "use": "增加擊退的距離",
      "detail": "衝擊(Punch)\n\n生物與玩家會被擊退得更遠.\n\nID:49(攜帶版：20)"
    },
    {
      "file_name": "gong_zhuwuping.png",
      "name": "火矢",
      "material": "最高等級 I",
      "use": "燃燒的箭矢使目標着火",
      "detail": "火矢(Flame)\n\n箭被射出後會着火,點燃目標生物5秒,且在擊中的5秒內對目標造成共2顆紅心的火焰傷害.\n\n生物掉落的肉會是熟的\n\n與打火石不同的是,火矢只會影響玩家,生物,以及TNT.其他的方塊並不會着火,但TNT會被點燃\n\n火焰傷害與火焰附加一樣是在普通傷害後給予的(在立即傷害之後附加)\n\n在生物死亡前5秒內,玩家對該生物造成過非火屬性的傷害,生物才會掉落經驗.ID:50(攜帶版：21)"
    },
    {
      "file_name": "gong_zhuwuping.png",
      "name": "無限",
      "material": "最高等級 I",
      "use": "射箭不會消耗箭矢\n經驗修補和無限互相衝突",
      "detail": "無限(Infinity)\n\n射箭將需要物品欄內至少有一根箭,但不會有消耗.射出的箭無法被拾起.\n\n此魔咒對藥水箭、光靈箭無效.\n擁有此魔咒的弓會優先選擇普通的箭\n\n經驗修補和無限魔咒相互排斥.當使用命令將其組合在同一個物品上時,這兩個魔咒會同時正常生效.\n\nID:51(攜帶版：22)"
    },
     {
      "file_name": "diaoyugang_zhuwuping.png",
      "name": "海之眷顧",
      "material": "最高等級 III",
      "use": "降低獲得垃圾的幾率",
      "detail": "海之眷顧(Luck of the Sea)\n\n基于預設的戰利品表,此魔咒降低釣魚時釣上“垃圾”的幾率,增加“寶藏”的幾率,各為大約2%\n同時降低釣上魚的幾率,約為0.15%.\n\n當等級大於等於4級時,永遠不會釣上垃圾,當等級是95級時,一定會釣上寶藏(待驗證)\n\nID:61(攜帶版：23)"
    },
    {
      "file_name": "diaoyugang_zhuwuping.png",
      "name": "餌釣",
      "material": "最高等級 III",
      "use": "提高釣魚的效率",
      "detail": "餌釣(Lure)\n\n1.9以前：每等級會減少5秒的等待時間.同時每等級降低1%獲得垃圾和寶藏的幾率\n\n當等級超過8級時,永遠不會上鈎.但在pe版中(0.13.1),超過8級是可以上鈎的,這是個特例\n\n1.9以後：不再影響到釣起的物品,只影響釣魚等待時間\n\nID:62(攜帶版：24"
    },
    {
      "file_name": "quangjiafu.png",
      "name": "經驗修補",
      "material": "最高等級 I",
      "use": "用經驗修補工具的耐久值\n經驗修補和無限互相衝突",
      "detail": "經驗修補(Mending)\n\n當附有該魔咒的物品被帶在身上(主手、副手或作為盔甲穿戴)時,撿起的經驗球不會累加進玩家的總經驗中,而會被用於修復物品耐久度,比率為每1點經驗增加2點耐久度\n\n如果持有多個附有該附魔的物品,則每個拾取的經驗球會隨機選擇一個工具\n\n如果被選擇的工具不需要修補,這個經驗球會像平常一樣給予玩家經驗值,而不會繼續選擇另外一個物品\n\n如果沒有物品需要修補,玩家會直接獲取經驗值\n\n屬於寶藏型附魔,只能通過寶箱、釣魚或交易獲得\n\n經驗修補和無限魔咒相互排斥.當使用命令將其組合在同一個物品上時,這兩個魔咒會同時正常生效.\n\nID:70(攜帶版：26)"
    },
    {
      "file_name": "quangjiafu.png",
      "name": "消失詛咒",
      "material": "最高等級 I",
      "use": "物品會在玩家死亡時從死亡的玩家的背包裡消失",
      "detail": "消失詛咒(Curse of Vanishing)\n\n當玩家死亡時,此物品會直接消失,而不是在死亡地點掉落\n此物品依然能扔出.不僅對工具,對所有物品也適用\n\n屬於寶藏型附魔,只能通過寶箱、釣魚或交易獲得\n\n該物品可能仍然會正常掉落.\n此魔咒效果可以通過將遊戲規則keepInventory設為true來避免.\n\nID:71(攜帶版：N/A)"
    }
  ]
}
