{
  "category": "食物",
  "blocks": [
    {
      "file_name": "quqi.png",
      "name": "曲奇",
      "material": "小麥 + 可可豆",
      "use": "食物,但它回覆較少饑餓值和飽和度",
      "detail": "曲奇(Cookie)是一種較容易獲得的食物.\n按着右鍵能吃曲奇,每個曲奇回覆1個雞腿饑餓值和0.5飽和度\n\n給鸚鵡喂曲奇吃,會立即殺死鸚鵡.因吃了曲奇而死的鸚鵡會在死亡時發出中毒顆粒.\n\n數據值\nDEC: 357 HEX: 165 BIN: 101100101\n名稱\ncookie"
    },
    {
      "file_name": "danggao.png",
      "name": "蛋糕",
      "material": "牛奶 + 糖 + 鷄蛋 + 小麥",
      "use": "能被玩家吃掉的食物方塊",
      "detail": "蛋糕(Cake)被放置後不能重新採集\n蛋糕不能以物品形式在快捷槽被吃掉,在吃之前,它必須被放在一個方塊上\n\n要吃一個已放置的蛋糕,對蛋糕按右鍵.\n每個蛋糕有7片,每次使用1片回覆1個雞腿饑餓值和0.4飽和度.\n吃完7片會回覆7個雞腿饑餓值和2.8飽和度.\n\n和吃其它食物不同,食用蛋糕是瞬間的,也不會發出聲音.幾個玩家可以同時吃一個蛋糕.\n\n在紅石電路中,當蛋糕連接到一個紅石比較器,會發出的長度14的信號.每片減少的蛋糕會減少長度2的信號\n\n成就\n蛋糕是個謊言\n\n數據值\n方塊\nDEC: 92 HEX: 5C BIN: 1011100\n物品\nDEC: 354 HEX: 162 BIN: 101100010\n名稱\ncake"
    },
    {
      "file_name": "mianbao.png",
      "name": "麵包",
      "material": "小麥",
      "use": "一種較容易獲得的食物",
      "detail": "麵包(Bread)是一種能被玩家吃下的食物類物品.\n\n按着右鍵能吃麵包,每個麵包回覆2.5雞腿饑餓值和6飽和度\n\n農民村民會把它們收割的小麥合成麵包並丟給其他村民.\n村民能通過拾起麵包使它們繁殖.當它們的物品欄滿了,它們可能會把麵包丟給其他村民.\n\n數據值\nDEC: 297 HEX: 129 BIN: 100101001\n名稱\nBread"
    },
    {
      "file_name": "jingpingguo.png",
      "name": "金蘋果",
      "material": "金錠 + 蘋果",
      "use": "一種能被玩家食用的特殊食物類物品",
      "detail": "普通金蘋果(Golden Apple)生成於要塞祭壇,沙漠神殿,地牢,廢棄礦井,雪屋,林地府邸的箱子裡\n按着右鍵能吃金蘋果,每個金蘋果回覆2個雞腿饑餓值和9.6飽和度\n普通金蘋果提供2分鐘的傷害吸收I效果和5秒生命恢復II效果\n一個普通金蘋果和虛弱藥水能令殭屍村民轉變為村民\n馬: 金蘋果都能增加10%馴服馬的幾率、使馬繁殖和減少4分鐘小馬的成長速度\n\n在電腦版,兩個金蘋果都具有IDminecraft:golden_apple(322),並且通過它們的特殊數據值進一步定義.\n數據值\n金蘋果\nDEC: 322 HEX: 142 BIN: 1010000100\n名稱\ngolden_apple"
    },
    {
      "file_name": "fumojingpingguo.png",
      "name": "附魔金蘋果",
      "material": "金塊 + 蘋果",
      "use": "僅限攜帶版和主機版",
      "detail": "附魔金蘋果(Enchanted Golden Apple)是金蘋果的變種,它比較稀有,但有較強的效果\n附魔金蘋果生成於沙漠神殿,地牢,廢棄礦井,林地府邸的箱子\n\n提供2分鐘的傷害吸收IV效果,20秒生命恢復II,總共回覆8顆紅心生命值.\n5分鐘防火I和5分鐘抗性提升I(除了掉入 虛空外,減少20%所有傷害)\n\n馬: 兩種金蘋果都能增加10%馴服馬的幾率、使馬繁殖和減少4分鐘小馬的成長速度\n\n在攜帶版, 普通金蘋果的ID是minecraft:golden_apple(322),附魔金蘋果的ID是minecraft:appleenchanted(466).\n數據值\n附魔金蘋果\nDEC: 322 HEX: 142 BIN: 101000010\n名稱\ngolden_apple"
    },
    {
      "file_name": "jinghuluobo.png",
      "name": "金胡蘿蔔",
      "material": "金粒 + 胡蘿蔔",
      "use": "一種貴重的食物類物品和釀造材料",
      "detail": "按着右鍵能吃金胡蘿蔔(Golden Carrot),每個金胡蘿蔔回覆3個雞腿饑餓值和14.4飽和度.金胡蘿蔔是遊戲中飽和度最高的食物\n\n金胡蘿蔔能用來馴服、繁殖、治療馬和加快小馬的成長速度,也能用來繁殖兔子和加快兔子的成長速度\n金胡蘿蔔能夠製作夜視藥水\n\n數據值\nDEC: 396 HEX: 18C BIN: 110001100\n名稱\ngolden_carrot"
    },
    {
      "file_name": "nanguapai.png",
      "name": "南瓜派",
      "material": "南瓜 + 糖 + 鷄蛋",
      "use": "一種能被玩家食用的食物類物品",
      "detail": "按着右鍵能吃南瓜派(Pumpkin Pie),每個南瓜派回覆4個雞腿饑餓值和4.8飽和度\n\n數據值\nDEC: 400 HEX: 190 BIN: 110010000\n名稱\npumpkin_pie"
    },
    {
      "file_name": "turoubao.png",
      "name": "兔肉煲",
      "material": "熟兔肉 + 胡蘿蔔 + 烤馬鈴薯 + 任何蘑菇 + 碗",
      "use": "一種能被玩家食用的食物類物品",
      "detail": "按着右鍵能吃兔肉煲(Rabbit Stew)\n吃完兔肉煲後它會變成碗\n\n每個兔肉煲回覆5個雞腿饑餓值和12飽和度.這回覆除了蛋糕外遊戲中最多饑餓值,但回覆的飽和度比金蘿蔔少\n\n數據值\nDEC: 413 HEX: 19D BIN: 110011101\n名稱\nrabbit_stew"
    },
    {
      "file_name": "mogubao.png",
      "name": "蘑菇煲",
      "material": "紅色蘑菇 + 棕色蘑菇 + 碗",
      "use": "一種食物類物品.",
      "detail": "蘑菇煲(Mushroom Stew)能通過拿着碗對哞菇按右鍵獲得.碗會被蘑菇煲代替\n\n如果拿着多於1個碗對哞菇按右鍵,只有1個碗會被消耗,而蘑菇煲會被放在空的物品欄槽.如果玩家的物品欄滿了,會掉落成物品\n\n每個蘑菇煲回覆3個雞腿的饑餓值和7.2飽和度\n蘑菇煲被吃掉後會變成碗,能再次被用來合成\n\n數據值\nDEC: 282 HEX: 11A BIN: 100011010\n名稱\nmushroom_stew"
    },
    {
      "file_name": "tianchaitang.png",
      "name": "甜菜湯",
      "material": "甜菜根 + 碗",
      "use": "一種液體食物類物品",
      "detail": "甜菜湯(Beetroot Soup)是一種液體食物類物品.\n\n每吃下一碗甜菜湯可以回覆3個雞腿饑餓值和7.2飽和度\n\n數據值\n電腦版:DEC: 436 HEX: 1B4 BIN: 110110100\n攜帶版:DEC: 459 HEX: 1CB BIN: 111001011\n名稱\nbeetroot_soup"
    },
    {
      "file_name": "nanguazhongzhi.png",
      "name": "南瓜種子",
      "material": "南瓜",
      "use": "一種用來種植南瓜的物品",
      "detail": "南瓜種子(Pumpkin Seeds)只能在耕地上種植,需要一定的亮度才能生長\n過了一段時間,它們會變成一個梗並在旁邊的泥土、草方塊或耕地上生成一個南瓜\n如果旁邊的泥土、草方塊或耕地上已經有一個南瓜,南瓜梗不會再生成南瓜,直至南瓜被移除\n一個梗能生成無限的南瓜\n\n骨粉能加快南瓜梗的生長,但不會直接幫助生成南瓜.\n\n南瓜梗是南瓜種子被種植在耕地上後的方塊.它在地下開始,生長時不斷升高.剛開始時是綠色的,成熟時則是棕色的\n一旦南瓜梗在旁邊生成了南瓜,南瓜梗會變成彎曲的.一個南瓜梗會連接旁邊的任何南瓜\n如果南瓜被移除了,南瓜梗會回覆垂直的外表\n\n南瓜種子能被用於繁殖鷄、使鷄跟隨玩家和通過減少10%剩餘生長時間來使小鷄加快生長.\n\n數據值\n方塊\nDEC: 104 HEX: 68 BIN: 1101000\n物品\nDEC: 361 HEX: 169 BIN: 101101001\n\nID\n物品/方塊:ID名稱:數字 ID\n南瓜種子:pumpkin_seeds:361\n南瓜梗:pumpkin_stem:104"
    },
    {
      "file_name": "xigua.pngzhongzhi.png",
      "name": "西瓜種子",
      "material": "西瓜片",
      "use": "用來種植西瓜的物品",
      "detail": "西瓜種子(Melon Seeds)只能在耕地上種植,需要一定的亮度才能生長\n過了一段時間,它們會變成一個梗並在旁邊的泥土、草方塊或耕地上生成一個西瓜\n如果旁邊的泥土、草方塊或耕地上已經有一個西瓜,西瓜梗不會再生成西瓜,直至西瓜被移除\n一個梗能生成無限的西瓜\n\n骨粉能加快西瓜梗的生長,但不會直接幫助生成西瓜.\n\n西瓜梗是西瓜種子被種植在耕地上後的方塊.它在地下開始,生長時不斷升高.剛開始時是綠色的,成熟時則是棕色的\n一旦西瓜梗在旁邊生成了西瓜,西瓜梗會變成彎曲的.一個西瓜梗會連接旁邊的任何西瓜\n如果西瓜被移除了,西瓜梗會回覆垂直的外表\n西瓜種子能被用於繁殖鷄、使鷄跟隨玩家和通過減少10%剩餘生長時間來使小鷄加快生長.\n\n數據值\n方塊\nDEC: 105 HEX: 69 BIN: 1101001\n物品\nDEC: 362 HEX: 16A BIN: 101101010\n\nID\n物品/方塊:ID名稱:數字 ID\n西瓜種子:melon_seeds:362\n西瓜梗:melon_stem:105"
    },
    {
      "file_name": "tang.png",
      "name": "糖",
      "material": "甘蔗",
      "use": "從甘蔗收穫下來的一種食物材料",
      "detail": "糖(Sugar)能合成蛋糕, 南瓜派,發酵蛛眼,製造迅捷藥水\n\n能餵馬來回覆0.5顆紅心生命值、加快30%生長速度和增加3%馴服幾率\n\n數據值\nDEC: 353 HEX: 161 BIN: 101100001\n名稱\nsugar"
    },
    {
      "file_name": "xiaomai.png",
      "name": "小麥",
      "material": "乾草塊",
      "use": "一種主要通過種植獲取的物品",
      "detail": "當完全成熟的小麥(Wheat)作物被收成,它會掉落1個小麥和0~3個種子\n小麥作物會經過8個生長階段直到能被收成\n如果小麥作物在完全成熟前收成,則只會掉落種子\n\n拿着小麥會使附近的牛、羊和哞菇跟着你\n小麥能用來繁殖牛、羊和哞菇,把它們趕在一起,然後對它們使用小麥使它們進入求愛模式就能繁殖它們\n\n小麥能治療馬0.5顆紅心的生命值、提高3%馴化馬可能性和加速20秒小馬的成長速度\n小麥能用來製作不同種類的食物,但當中每個小麥能得到的益處取決於你用​​來做什麼\n\n繁殖牛,哞菇,羊,合成曲奇(需要可可豆)的平均回覆的饑餓度和平均回覆的飽和度最高\n\n數據值\nDEC: 296 HEX: 128 BIN: 100101000\n名稱\nwheat"
    },
    {
      "file_name": "gangchaokuai.png",
      "name": "乾草塊",
      "material": "小麥",
      "use": "可作為食物來源",
      "detail": "乾草塊(Hay Bale)是一種方塊.它們可以像木頭一般側向放置.它們可以給馬喂食,也可以用來存儲小麥\n\n雖然無法被玩家食用,乾草塊比起其他食物來源可作為支持長期生活的高效壓縮乾糧\n\n乾草塊也能喂給馬、驢或騾以回覆10點紅心\n乾草塊也能用來為馬駒成長加快3分鐘的真實時間\n\n乾草塊能夠用來喂養羊駝並使它們生育後代.\n\n乾草塊會減少80%的掉落傷害,因此意味着掉落到乾草塊上僅會受到一般情況下20%的掉落傷害.\n一個滿生命值且未裝備任何盔甲的玩家從100.27格高度摔落到乾草塊上依然具有0.5顆紅心的生命值.\n\n數據值\nDEC: 170 HEX: AA BIN: 10101010\n名稱\nhay_block"
    },{
      "file_name": "xigua.png",
      "name": "西瓜",
      "material": "種植 西瓜種子 獲得",
      "use": "可以合成西瓜片",
      "detail": "西瓜(Melon)是種植西瓜種子後長出來的方塊.\n\n西瓜自然生成於叢林生物群系.\n\n農夫將會以1個綠寶石的價格收購7-12個西瓜.\n\n可以合成西瓜片.\n\n獲取:\n西瓜可用任何工具進行開採,但是用斧(和劍)是最快的.\n\n可使用帶有精準採集附魔的工具來獲得西瓜方塊,如果不使用帶有精準採集附魔的工具進行開採,則會掉落3-7個西瓜片.\n\n當一個西瓜被活塞推動時,它會被破壞並掉落3-7個西瓜片.\n\n種植:\n西瓜種子可被種植,種植時會放置西瓜梗,西瓜梗會一直生長.\n\n一旦西瓜梗成熟,它會嘗試在它毗鄰的4個方塊生成一個西瓜.\n\n然而,如果所選擇的毗鄰方塊不為空或方塊底部不是泥土、草叢和耕地,這次嘗試會失敗.\n\n一旦西瓜梗已經連接到了一個西瓜,西瓜梗就不會再生成任何的西瓜,直到西瓜被收割.\n\n如果2個西瓜植物間隔為1格且在它們中間放置/生成了1個西瓜,那麼它們都會像同時生成了一個西瓜那樣連接到這個西瓜.\n\n此外,直到它們中間的西瓜被收割之前,它們都不會生成其它的西瓜,南瓜也是這樣.\n\n你知道嗎?\n西瓜梗會連接到任何毗鄰它的西瓜,即使西瓜不是從西瓜梗那里長出來的.\n\n由於這一點,如果一個西瓜生成在2個西瓜梗中間,這2個西瓜梗都會連接它們.\n南瓜也有這種行為,儘管它們不會連接到不同種類的植物.\n\n數據值\nDEC: 103 HEX: 67 BIN: 1100111\n名稱\nmelon_block"
    }
  ]
}
