﻿{
  "category": "武器",
  "blocks": [
    {
      "file_name": "jian.gif",
      "name": "木劍 石劍 鐵劍 金劍 鑽石劍",
      "material": "木板,圓石,鐵錠,鑽石 + 木棍",
      "use": "玩家和一些生物的常用近戰武器",
      "detail": "劍(Sword)是一種近戰武器,主要用於對生物和玩家造成傷害.\n\n一些生物在生成的時候會帶劍,在它們被玩家殺死的情況下有8.5%(搶奪I是9.5%,搶奪II是10.5%,搶奪III是11.5%)的概率掉落劍.\n殭屍可以掉落鐵劍,殭屍豬人可以掉落金劍,凋靈骷髏可以掉落石劍.\n這些劍大部分損壞嚴重,有時會附有魔咒.\n\n當一個惱鬼手持鐵劍被玩家殺死時正常情況下有0％的幾率掉落鐵劍,這是因為它們主手的HandDropChances標籤為0.\n但是這個概率可被搶奪魔咒增加,魔咒每有一等級掉落的幾率就增加1%.\n這種情況下掉落的鐵劍不會有耐久度耗損或附有魔咒.\n\n武器商村民以9-10個綠寶石銷售附魔鐵劍作為它們第二層交易之一,\n並以12-15個綠寶石銷售附魔鑽石劍作為它們第三層交易之一.\n劍的魔咒將會和5-19級的附魔台能獲得的魔咒相同.\n\n鐵劍會在12.2%的要塞祭壇的箱子裡以及26.0%的村莊鐵匠鋪的箱子裡以1份為一組的形式出現.\n金劍會在19.2%的下界要塞的箱子裡以1份為一組的形式出現.\n附魔的鐵劍會在13.4%的末地城的箱子裡以1份為一組的形式出現.\n附魔的鑽石劍會在13.4%的末地城的箱子裡以1份為一組的形式出現.\n\n攻擊:\n拿着劍按攻擊鍵會增加對生物和玩家造成的傷害.\n攻擊生物和玩家的同時,劍會丟失1點耐久值.\n用劍攻擊船和礦車會立即破壞它們,而且不會使劍消耗耐久度.\n\n橫掃攻擊:\n如果傷害決定條為滿,且玩家移動速度不高於普通行走速度時,劍會使出橫掃攻擊,可以同時擊中附近的敵人.\n與被擊中敵人靠近的其他敵人會被擊退並受到0.5顆紅心的傷害.\n橫掃之刃魔咒 I級可以將橫掃攻擊的普通攻擊傷害提高50%,II級為67%,III級為75%.\n橫掃攻擊的擊退效果是擊退 I所造成擊退的80%,且不受擊退魔咒的加成.\n距離被直接擊中生物任何部位水平1方格、垂直0.25方格內的所有敵人都會被擊退.\n\n電腦版:\n劍的攻擊速度是1.6,需要0.625秒來恢復.\n傷害值\n木質: 4\n金質: 4\n石質: 5\n鐵質: 6\n鑽石: 7\n\n主機版和攜帶版:\n劍沒有攻擊冷卻並會造成以下傷害：\n木質: 5\n金質: 5\n石質: 6\n鐵質: 7\n鑽石: 8\n\n劍能被附加以下魔咒：\n火焰附加\n搶奪\n耐久\n鋒利[注 1]\n亡靈殺手[注1]\n節肢殺手[注1]\n擊退\n經驗修補[注2]\n消失詛咒[注2]\n橫掃之刃\n[注1]鋒利、亡靈殺手、節肢殺手互相排斥.\n[注2]只能通過使用附魔書和鐵砧獲取或在末地城的箱子裡得到.\n\n如果在創造模式或使用命令為劍附魔精準採集,用它採集蜘蛛網將會掉落蜘蛛網而不是綫.\n這是因為劍被歸類為採集蜘蛛網合適的工具.\n\n耐久度\n木質：60\n石質：132\n鐵質：251\n金質：33\n鑽石質：1562\n\n數據值\nID\n物品      ID名稱        數字ID\n鐵劍      iron_sword      267\n木劍      wooden_sword    268\n石劍      stone_sword     272\n鑽石劍    diamond_sword   276\n金劍      golden_sword    283"
    },
    {
      "file_name": "gong.png",
      "name": "弓",
      "material": "木棍 + 綫",
      "use": "可以射箭的最強遠程武器",
      "detail": "弓(Bow)是一種可以射箭的遠程武器.\n\n玩家殺死骷髏時,有8.5%的幾率掉落一把弓.\n掉落的幾率會隨着搶奪附魔等級的增加而增加,\n搶奪附魔每增加1級,掉落幾率就加1%.最高掉落幾率為11.5%.\n\n制箭師村民會用1把弓來交換2-3個綠寶石,作為它們的第二級交易.\n\n在釣魚的時候,有機會釣到作為寶藏的弓.\n釣上來的弓會有損壞,並且附帶隨機附魔,該附魔等價于在附魔台上30級的附魔.\n\n武器:\n長按使用鍵(預設為滑鼠右鍵)可以拉弦.\n要使用弓,你的物品欄裡至少要有一支箭,或者處于創造模式.\n在拉弦時,玩家只能以潛行的速度移動.\n除非玩家正騎着馬、坐在礦車或者船裡,移動速度才不會下降.\n\n把弦拉到極限時,弓會顫抖,以此表明弦已經被拉到極限.\n拉滿弦的弓會射出帶有白色顆粒軌跡的箭,預示這支箭將會造成暴擊.\n把弦拉到最小時,只會造成0.5顆紅心傷害,並僅僅能飛過1個方塊的距離.\n拉滿弦時,箭以53米/秒的速度最多可以飛過64個方塊的距離,並造成4.5顆紅心傷害,有1/5的幾率造成5顆紅心傷害,因此是遊戲中最強的武器.\n\n當箭射中玩家時,會發出一個高音調的'叮'的聲音.\n\n箭造成的傷害不受力量藥水效果的影響.\n\n不能用箭射中末影人,因為在箭到達末影人之前,末影人就已經傳送走了,或者箭打偏了.\n然而,火矢I的箭能點燃末影人.\n\n附魔:\n弓接受6種不同類型的附魔,其基礎可附魔值為1.\n弓的附魔不會對箭的速度或距離有任何的影響.\n\n力量附魔將增加25%*(等級+1)的傷害,最高為力量 V.\n一把力量 V 的弓可以造成12.5顆紅心傷害.\n\n衝擊附魔將增加箭擊退的距離(每等級+4方塊),最高等級為衝擊II.\n\n火矢附魔會點燃箭,被點燃的箭擊中實體後會點燃實體.\n如果火一直沒有熄滅,則火焰最多會造成2.5顆紅心的傷害.\n火矢也允許玩家遠程點燃TNT.\n\n無限附魔允許你在不消耗箭的情況下進行射擊.\n即使這樣,玩家還是要在物品欄中備上一支箭來進行發射.\n由無限附魔的弓射出去的箭無法回收.該附魔最高只有1級.\n\n耐久附魔會讓弓受到100/(耐久附魔等級)+1的耐久損耗.\n該附魔最高等級為 III 級.\n\n經驗修復附魔可以讓你在獲得經驗時修復它.該附魔最高為1級.\n\n箭:\n因為箭受到重力影響,所以其飛行軌跡會呈拋物線狀.\n當向目標射箭時,必須稍稍向上提起弓,或者更高的地方來對目標實施有效攻擊.\n箭在水裡穿行的時候速度會很緩慢.\n\n射中固體方塊的箭會被卡住,此時的箭變成可拾獲狀態.\n除非這只箭是由無限附魔的弓或骷髏射出的,或正處于創造模式裡.\n\n箭穿過熔岩會被點燃,與火矢附魔效果類似.穿過熔岩的箭擊中實體會點燃它.\n如果火一直沒熄滅,那麼火焰最高造成的傷害為2.5顆紅心.\n\n箭可以觸發木質壓力板和按鈕,然而石質的壓力板和按鈕則不能.\n\n可以合成發射器\n弓必須未被損壞.\n弓上面的附魔不會作用於合成的發射器\n\n數據值\nDEC: 261 HEX: 105 BIN: 100000101\n名稱\nbow\n耐久度\n385"
    },
    {
      "file_name": "jian.gifg",
      "name": "箭",
      "material": "燧石 + 木棍 + 羽毛",
      "use": "彈葯.骷髏的每次死亡可掉落0-2根箭",
      "detail": "箭(Arrow)是弓和發射器的彈葯.箭可以通過改造來對玩家和生物施加狀態效果.\n\n骷髏的每次死亡可掉落0-2支箭,武器的搶奪魔咒等級每級可增加1的最大掉落量.\n流髑被玩家擊殺時可掉落1支緩慢箭,不受搶奪魔咒影響.\n骷髏和流髑射出的箭不能被拾取.\n\n村民中的造箭者在其第一等級交易中出售箭,每1個綠寶石可換得8-12支箭.\n\n箭會在所有的叢林神廟的發射器裡以2–7個為一組的形式出現.\n\n由發射器發射的箭,以及由生存模式下的玩家發射的非無限魔咒的箭,在扎入方塊後可以被回收.\n由骷髏、創造模式玩家和無限魔咒射出的箭無法被回收\n\n對裝有藥水的煉藥鍋使用箭可得到藥箭.[僅限攜帶版]\n\n用途:\n被射出時,箭會按照射彈軌跡(拋物綫)飛行,並受空氣、水和熔岩影響.\n沿水平方向射出時,未拉弦的箭大約可射3米遠,拉至一半可射15米遠,拉滿弦可射24米遠.\n水中的箭會受到更大的阻力：箭在射出不到8米就會喪失全部的水平速度並開始垂直下沉,但箭造成的擊退效果不受影響.\n水中的箭還會產生泡泡尾跡.\n在合適的角度下,一支拉滿弦的箭可飛行約120米.\n向上射出的箭最高可達66米.\n\n箭所造成的傷害由其速度決定.\n一支拉滿弦的箭可造成約4.5顆紅心的傷害,並有小幾率造成5顆紅心的傷害.\n拉至一半的箭造成約3顆紅心的傷害,未拉弦的箭造成約0.5顆紅心的傷害.\n發射器射出的箭造成約1.5顆紅心的傷害.\n\n目標被射中後的0.5秒會暫時免疫後續的傷害.\n此時擊中目標的箭會失去速度落到地面上.\n\n箭可被雪球打歪.\n\n射中其它物體的箭會嵌入並卡住,且在1分鐘後消失；\n箭的飛行距離與入射角度決定箭射入物體的深度.\n某些卡住的箭能夠回收.\n\n藥箭的自定義效果(NBT標籤CustomPotionEffects)會在藥箭被卡住30秒後消失,但其主要效果(NBT標籤Potion)不會消失.\n\n若箭所射入的方塊被破壞或消失(如樹葉枯萎),則箭會垂直掉落並傷害處于該方塊下的實體.\n\n箭會被諸如礦車的實體以及免疫傷害的生物彈開.\n處于“凋靈盔甲”狀態的凋靈和衝刺狀態的末影龍免疫弓箭.\n\n射過熔岩(但不是火)的箭會着火併附有火焰特效,其穿過水後會熄滅.\n與帶有火矢魔咒的弓射出的箭一樣,這種箭可使被射中的實體着火併引燃TNT.\n\n射到鐵軌上的箭會阻止礦車前進,直至箭消失或被回收.\n\n被箭射中的船和各式礦車會被破壞,掉落相應的物品或零部件(以及容器的內容物).\n\n紅石電路:\n箭可以激活木質按鈕、木質壓力板以及絆綫.\n被箭釘住的開關會保持激活狀態,直至箭消失或被回收.其它開關則不受箭的影響.\n\n當箭射中方塊的側面時,箭尾會相比預計軌跡更翹起一些.\n這可能會導致箭橫穿兩個方塊,並激活位於其上方的實際並未擊中的開關,或阻擋位於其上方的鐵軌.\n\n爆炸:\n飛行中的箭會受到爆炸的影響.由於爆炸提升了箭的速度,其所造成的傷害也會增加.\n\n箭擁有定義實體不同屬性的實體數據.箭的ID是arrow.\n普通箭\nDEC: 262 HEX: 106 BIN: 100000110\n名稱\narrow"
    },
    {
      "file_name": "rengheyaojiang.gif",
      "name": "任何藥箭",
      "material": "箭 + 任何滯留藥水",
      "use": "能夠給被射中的生物或玩家增加BUFF",
      "detail": "藥箭能夠對被射中的生物或玩家施加狀態效果.\n如果該效果有相應的藥水,藥箭效果的持續時間是相應的藥水的1⁄8,且與弓箭的力度無關.\n藥箭的效果與對應藥水的效果相同.\n附有無限魔咒的弓仍然會正常消耗藥箭.\n\n藥箭的種類有：\n再生之箭\n迅捷之箭\n抗火之箭\n治療之箭\n夜視之箭\n力量之箭\n跳躍之箭\n隱身之箭\n劇毒之箭\n虛弱之箭\n遲緩之箭\n傷害之箭\n水肺之箭\n幸運之箭[僅限PC和主機版]\n衰變之箭[僅限攜帶版]\n\n其他詳情請參考箭\n\n如果一個Arrow實體含有Potion或CustomPotionEffects標籤,此實體為藥箭.\ntipped_arrow物品使用這些標籤,但arrow沒有使用這些標籤.\n\n藥箭\nDEC: 440 HEX: 1B8 BIN: 110111000\n名稱\ntipped_arrow"
    },
    {
      "file_name": "guanglingjiang.gif",
      "name": "光靈箭",
      "material": "螢石粉 + 箭",
      "use": "僅限PC版",
      "detail": "光靈箭[僅限PC版]會對目標施加10秒的發光效果.\n發光效果顯示出目標的輪廓,能夠透過方塊被看見,且其顏色根據目標所在的隊伍而各不相同(預設為白色).\n附有無限魔咒的弓仍然會正常消耗光靈箭.\n\n其他詳情請參考箭\n\n光靈箭同樣擁有定義實體不同屬性的實體數據.\n它們的實體ID是spectral_arrow.\n\n光靈箭\nDEC: 439 HEX: 1B7 BIN: 110110111\n名稱\nspectral_arrow"
    },
    {
      "file_name": "jian_2.gif",
      "name": "木劍 石劍 鐵劍 金劍 鑽石劍",
      "material": "損壞的 木劍 或石劍 或鐵劍 或金劍 或鑽石劍",
      "use": "2把劍的耐久度加在一起,再加額外的5%耐久度",
      "detail": "劍(Sword)是一種近戰武器,主要用於對生物和玩家造成傷害.\n\n一些生物在生成的時候會帶劍,在它們被玩家殺死的情況下有8.5%(搶奪I是9.5%,搶奪II是10.5%,搶奪III是11.5%)的概率掉落劍.\n殭屍可以掉落鐵劍,殭屍豬人可以掉落金劍,凋靈骷髏可以掉落石劍.\n這些劍大部分損壞嚴重,有時會附有魔咒.\n\n當一個惱鬼手持鐵劍被玩家殺死時正常情況下有0％的幾率掉落鐵劍,這是因為它們主手的HandDropChances標籤為0.\n但是這個概率可被搶奪魔咒增加,魔咒每有一等級掉落的幾率就增加1%.\n這種情況下掉落的鐵劍不會有耐久度耗損或附有魔咒.\n\n武器商村民以9-10個綠寶石銷售附魔鐵劍作為它們第二層交易之一,\n並以12-15個綠寶石銷售附魔鑽石劍作為它們第三層交易之一.\n劍的魔咒將會和5-19級的附魔台能獲得的魔咒相同.\n\n鐵劍會在12.2%的要塞祭壇的箱子裡以及26.0%的村莊鐵匠鋪的箱子裡以1份為一組的形式出現.\n金劍會在19.2%的下界要塞的箱子裡以1份為一組的形式出現.\n附魔的鐵劍會在13.4%的末地城的箱子裡以1份為一組的形式出現.\n附魔的鑽石劍會在13.4%的末地城的箱子裡以1份為一組的形式出現.\n\n攻擊:\n拿着劍按攻擊鍵會增加對生物和玩家造成的傷害.\n攻擊生物和玩家的同時,劍會丟失1點耐久值.\n用劍攻擊船和礦車會立即破壞它們,而且不會使劍消耗耐久度.\n\n橫掃攻擊:\n如果傷害決定條為滿,且玩家移動速度不高於普通行走速度時,劍會使出橫掃攻擊,可以同時擊中附近的敵人.\n與被擊中敵人靠近的其他敵人會被擊退並受到0.5顆紅心的傷害.\n橫掃之刃魔咒 I級可以將橫掃攻擊的普通攻擊傷害提高50%,II級為67%,III級為75%.\n橫掃攻擊的擊退效果是擊退 I所造成擊退的80%,且不受擊退魔咒的加成.\n距離被直接擊中生物任何部位水平1方格、垂直0.25方格內的所有敵人都會被擊退.\n\n電腦版:\n劍的攻擊速度是1.6,需要0.625秒來恢復.\n傷害值\n木質: 4\n金質: 4\n石質: 5\n鐵質: 6\n鑽石: 7\n\n主機版和攜帶版:\n劍沒有攻擊冷卻並會造成以下傷害：\n木質: 5\n金質: 5\n石質: 6\n鐵質: 7\n鑽石: 8\n\n劍能被附加以下魔咒：\n火焰附加\n搶奪\n耐久\n鋒利[注 1]\n亡靈殺手[注1]\n節肢殺手[注1]\n擊退\n經驗修補[注2]\n消失詛咒[注2]\n橫掃之刃\n[注1]鋒利、亡靈殺手、節肢殺手互相排斥.\n[注2]只能通過使用附魔書和鐵砧獲取或在末地城的箱子裡得到.\n\n如果在創造模式或使用命令為劍附魔精準採集,用它採集蜘蛛網將會掉落蜘蛛網而不是綫.\n這是因為劍被歸類為採集蜘蛛網合適的工具.\n\n耐久度\n木質：60\n石質：132\n鐵質：251\n金質：33\n鑽石質：1562\n\n數據值\nID\n物品      ID名稱        數字ID\n鐵劍      iron_sword      267\n木劍      wooden_sword    268\n石劍      stone_sword     272\n鑽石劍    diamond_sword   276\n金劍      golden_sword    283"
    },
    {
      "file_name": "hutui.gif",
      "name": "皮革褲子 金護腿 鎖鏈護腿 鐵護腿 鑽石護腿",
      "material": "皮革 或金錠 或鐵錠 或鑽石",
      "use": "包裹着玩家下身的盔甲",
      "detail": "護腿(Leggings)為包裹着玩家下身的盔甲.\n\n護腿一共有五種——皮革褲子、鎖鏈護腿、鐵護腿、鑽石護腿以及金護腿.\n\n如果殭屍、殭屍豬人或骷髏穿著護腿,在它們死亡時有8.5%的幾率(搶奪I為9.5%,搶奪II為10.5%,搶奪III為11.5%)掉落護腿.\n它通常是嚴重損壞的,也有可能有附魔.\n\n鐵護腿會在12.2%的要塞祭壇的箱子裡以及26.0%的村莊鐵匠鋪的箱子裡以1份為一組的形式出現.\n附魔的鐵護腿會在13.4%的末地城的箱子裡以1份為一組的形式出現.\n附魔的鑽石護腿會在13.4%的末地城的箱子裡以1份為一組的形式出現.\n\n盔甲商村民以9-11個綠寶石銷售鎖鏈護腿作為它們第四層交易之一.\n皮匠村民以2-4個綠寶石銷售皮革褲子作為它們的第一層交易之一\n\n護腿能被放在玩家物品欄盔甲槽的第三格來起作用.\n\n盔甲值\n每點盔甲值是通過生命值上面的盔甲條以半個盔甲表徵圖表示的.\n每點盔甲值將吸收玩家受到的4%傷害,每點盔甲值的功效是相疊加的.\n不同材料和盔甲的搭配將給予不同的程度的防禦.\n\n以下表格顯示了護腿所給予的盔甲值.\n皮革   1個盔甲表徵圖\n金   1.5個盔甲表徵圖\n鎖鏈   2個盔甲表徵圖\n鐵   2.5個盔甲表徵圖\n鑽石   3個盔甲表徵圖\n\n耐久度:\n皮革    76\n金      106\n鎖鏈/鐵 226\n鑽石    496\n\n護腿能通過在鐵砧使用合成它的材料(皮革、金錠、鐵錠或鑽石)來修復.\n鎖鏈護腿能用鐵錠以此方法來修復.\n它們也可以通過與另一個相同材料的護腿合成來修復.\n\n護腿可以得到以下魔咒：\n火焰保護[注1]\n彈射物保護[注1]\n爆炸保護[注1]\n保護[注1]\n耐久\n荊棘[注2]\n經驗修補[注3]\n綁定詛咒[注3]\n消失詛咒[注3]\n[注1]火焰保護、爆炸保護、彈射物保護和保護是互斥的.\n[注2]只能通過使用附魔書和鐵砧獲取.\n[注3]只能通過使用附魔書和鐵砧或在末地城箱子找附魔護腿獲取.\n\n數據值\n物品      ID名稱:        數字ID\n皮革褲子  leather_leggings:300\n鎖鏈護腿  chainmail_leggings:304\n鐵護腿    iron_leggings:308\n鑽石護腿  diamond_leggings:312\n金護腿    golden_leggings:316"
    },
    {
      "file_name": "hutui_2.gif",
      "name": "皮革褲子 金護腿 鎖鏈護腿 鐵護腿 鑽石護腿",
      "material": "損壞的 皮革褲子 或金護腿\n或鏈護腿 或鐵護腿或鑽石護腿",
      "use": "2個護腿的耐久度加在一起,再加額外的5%耐久度",
      "detail": "護腿(Leggings)為包裹着玩家下身的盔甲.\n\n護腿一共有五種——皮革褲子、鎖鏈護腿、鐵護腿、鑽石護腿以及金護腿.\n\n如果殭屍、殭屍豬人或骷髏穿著護腿,在它們死亡時有8.5%的幾率(搶奪I為9.5%,搶奪II為10.5%,搶奪III為11.5%)掉落護腿.\n它通常是嚴重損壞的,也有可能有附魔.\n\n鐵護腿會在12.2%的要塞祭壇的箱子裡以及26.0%的村莊鐵匠鋪的箱子裡以1份為一組的形式出現.\n附魔的鐵護腿會在13.4%的末地城的箱子裡以1份為一組的形式出現.\n附魔的鑽石護腿會在13.4%的末地城的箱子裡以1份為一組的形式出現.\n\n盔甲商村民以9-11個綠寶石銷售鎖鏈護腿作為它們第四層交易之一.\n皮匠村民以2-4個綠寶石銷售皮革褲子作為它們的第一層交易之一\n\n護腿能被放在玩家物品欄盔甲槽的第三格來起作用.\n\n盔甲值\n每點盔甲值是通過生命值上面的盔甲條以半個盔甲表徵圖表示的.\n每點盔甲值將吸收玩家受到的4%傷害,每點盔甲值的功效是相疊加的.\n不同材料和盔甲的搭配將給予不同的程度的防禦.\n\n以下表格顯示了護腿所給予的盔甲值.\n皮革   1個盔甲表徵圖\n金   1.5個盔甲表徵圖\n鎖鏈   2個盔甲表徵圖\n鐵   2.5個盔甲表徵圖\n鑽石   3個盔甲表徵圖\n\n耐久度:\n皮革    76\n金      106\n鎖鏈/鐵 226\n鑽石    496\n\n護腿能通過在鐵砧使用合成它的材料(皮革、金錠、鐵錠或鑽石)來修復.\n鎖鏈護腿能用鐵錠以此方法來修復.\n它們也可以通過與另一個相同材料的護腿合成來修復.\n\n護腿可以得到以下魔咒：\n火焰保護[注1]\n彈射物保護[注1]\n爆炸保護[注1]\n保護[注1]\n耐久\n荊棘[注2]\n經驗修補[注3]\n綁定詛咒[注3]\n消失詛咒[注3]\n[注1]火焰保護、爆炸保護、彈射物保護和保護是互斥的.\n[注2]只能通過使用附魔書和鐵砧獲取.\n[注3]只能通過使用附魔書和鐵砧或在末地城箱子找附魔護腿獲取.\n\n數據值\n物品      ID名稱:        數字ID\n皮革褲子  leather_leggings:300\n鎖鏈護腿  chainmail_leggings:304\n鐵護腿    iron_leggings:308\n鑽石護腿  diamond_leggings:312\n金護腿    golden_leggings:316"
    },
    {
      "file_name": "toukui.gif",
      "name": "皮革帽子 金頭盔 鎖鏈頭盔 鐵頭盔 鑽石頭盔",
      "material": "皮革 或金錠 或鐵錠 或鑽石",
      "use": "包裹着玩家頭部的盔甲",
      "detail": "頭盔(Helmet)為包裹着玩家頭部的盔甲.\n\n頭盔一共有五種：皮革帽子、鎖鏈頭盔、鐵頭盔、鑽石頭盔以及金頭盔.\n\n如果殭屍、殭屍豬人或骷髏穿著頭盔,在它們死亡時有8.5%的幾率(搶奪I為9.5%,搶奪II為10.5%,搶奪III為11.5%)掉落頭盔.\n它通常是嚴重損壞的,也有可能有附魔.\n\n鐵頭盔會在12.2%的要塞祭壇的箱子裡以及26.0%的村莊鐵匠鋪的箱子裡以1份為一組的形式出現.\n附魔的鐵頭盔會在13.4%的末地城的箱子裡以1份為一組的形式出現.\n附魔的鑽石頭盔會在13.4%的末地城的箱子裡以1份為一組的形式出現.\n\n盔甲商村民以4-6個綠寶石銷售附魔鐵頭盔作為它們第一層交易之一\n並以5-7個綠寶石銷售鎖鏈頭盔作為它們第四層交易之一.\n\n頭盔能被放在玩家物品欄盔甲槽的最高一格來起作用.\n\n盔甲值:\n每點盔甲值是通過生命值上面的盔甲條以半個盔甲表徵圖表示的.\n每點盔甲值將吸收玩家受到的4%傷害,每點盔甲值的功效是相疊加的.\n不同材料和盔甲的搭配將給予不同的程度的防禦.\n\n以下表格顯示了頭盔所給予的盔甲值.\n皮革  0.5個盔甲表徵圖\n金      1個盔甲表徵圖\n鎖鏈    1個盔甲表徵圖\n鐵      1個盔甲表徵圖\n鑽石  1.5個盔甲表徵圖\n\n耐久度:來自任何盔甲會抵擋的傷害源的攻擊都將移除所有所穿盔甲1點耐久值.\n來自盔甲所不保護的傷害(如摔落傷害和溺水)將不會使盔甲受損,即使它的魔咒保護那種類的傷害.\n以下的表格顯示了頭盔所能承受的打擊數.\n材料\n皮革     56\n金       78\n鎖鏈/鐵  166\n鑽石     364\n\n頭盔能通過在鐵砧使用合成它的材料(皮革、金錠、鐵錠或鑽石)來修復.鎖鏈頭盔能用鐵錠以此方法來修復.\n它們也可以通過與另一個相同材料的頭盔合成來修復.\n\n頭盔可以得到以下魔咒：\n火焰保護[注1]\n彈射物保護[注1]\n爆炸保護[注1]\n保護[注1]\n耐久\n水下呼吸\n水下速掘\n荊棘[注2]\n經驗修補[注3]\n綁定詛咒[注3]\n消失詛咒[注3]\n[注1]火焰保護、爆炸保護、彈射物保護和保護是互斥的.\n[注2]只能通過使用附魔書和鐵砧獲取.\n[注3]只能通過使用附魔書和鐵砧或在末地城箱子找附魔頭盔獲取.\n\n數據值\n物品       ID名稱:      數字ID\n皮革帽子   leather_helmet:298\n鎖鏈頭盔   chainmail_helmet:302\n鐵頭盔     iron_helmet:306\n鑽石頭盔   diamond_helmet:310\n金頭盔     golden_helmet:314"
    },
    {
      "file_name": "toukui_2.gif",
      "name": "皮革帽子 金頭盔 鎖鏈頭盔 鐵頭盔 鑽石頭盔",
      "material": "損壞的 皮革帽子 或金頭盔\n或鎖鏈頭盔 或鐵頭盔 或鑽石頭盔",
      "use": "2個頭盔的耐久度加在一起,再加額外的5%耐久度",
      "detail": "頭盔(Helmet)為包裹着玩家頭部的盔甲.\n\n頭盔一共有五種：皮革帽子、鎖鏈頭盔、鐵頭盔、鑽石頭盔以及金頭盔.\n\n如果殭屍、殭屍豬人或骷髏穿著頭盔,在它們死亡時有8.5%的幾率(搶奪I為9.5%,搶奪II為10.5%,搶奪III為11.5%)掉落頭盔.\n它通常是嚴重損壞的,也有可能有附魔.\n\n鐵頭盔會在12.2%的要塞祭壇的箱子裡以及26.0%的村莊鐵匠鋪的箱子裡以1份為一組的形式出現.\n附魔的鐵頭盔會在13.4%的末地城的箱子裡以1份為一組的形式出現.\n附魔的鑽石頭盔會在13.4%的末地城的箱子裡以1份為一組的形式出現.\n\n盔甲商村民以4-6個綠寶石銷售附魔鐵頭盔作為它們第一層交易之一\n並以5-7個綠寶石銷售鎖鏈頭盔作為它們第四層交易之一.\n\n頭盔能被放在玩家物品欄盔甲槽的最高一格來起作用.\n\n盔甲值:\n每點盔甲值是通過生命值上面的盔甲條以半個盔甲表徵圖表示的.\n每點盔甲值將吸收玩家受到的4%傷害,每點盔甲值的功效是相疊加的.\n不同材料和盔甲的搭配將給予不同的程度的防禦.\n\n以下表格顯示了頭盔所給予的盔甲值.\n皮革  0.5個盔甲表徵圖\n金      1個盔甲表徵圖\n鎖鏈    1個盔甲表徵圖\n鐵      1個盔甲表徵圖\n鑽石  1.5個盔甲表徵圖\n\n耐久度:來自任何盔甲會抵擋的傷害源的攻擊都將移除所有所穿盔甲1點耐久值.\n來自盔甲所不保護的傷害(如摔落傷害和溺水)將不會使盔甲受損,即使它的魔咒保護那種類的傷害.\n以下的表格顯示了頭盔所能承受的打擊數.\n材料\n皮革     56\n金       78\n鎖鏈/鐵  166\n鑽石     364\n\n頭盔能通過在鐵砧使用合成它的材料(皮革、金錠、鐵錠或鑽石)來修復.鎖鏈頭盔能用鐵錠以此方法來修復.\n它們也可以通過與另一個相同材料的頭盔合成來修復.\n\n頭盔可以得到以下魔咒：\n火焰保護[注1]\n彈射物保護[注1]\n爆炸保護[注1]\n保護[注1]\n耐久\n水下呼吸\n水下速掘\n荊棘[注2]\n經驗修補[注3]\n綁定詛咒[注3]\n消失詛咒[注3]\n[注1]火焰保護、爆炸保護、彈射物保護和保護是互斥的.\n[注2]只能通過使用附魔書和鐵砧獲取.\n[注3]只能通過使用附魔書和鐵砧或在末地城箱子找附魔頭盔獲取.\n\n數據值\n物品       ID名稱:      數字ID\n皮革帽子   leather_helmet:298\n鎖鏈頭盔   chainmail_helmet:302\n鐵頭盔     iron_helmet:306\n鑽石頭盔   diamond_helmet:310\n金頭盔     golden_helmet:314"
    },
    {
      "file_name": "xiongjia.gif",
      "name": "皮革外套 金胸甲 鎖鏈胸甲 鐵胸甲 鑽石胸甲",
      "material": "皮革 或金錠 或鐵錠 或鑽石",
      "use": "包裹着玩家上身的盔甲",
      "detail": "胸甲(Chestplates)為包裹着玩家上身的盔甲.\n\n胸甲一共有五種——皮革外套、鎖鏈胸甲、鐵胸甲、鑽石胸甲以及金胸甲.\n\n如果殭屍、殭屍豬人或骷髏穿著胸甲,在它們死亡時有8.5%的幾率(搶奪I為9.5%,搶奪II為10.5%,搶奪III為11.5%)掉落胸甲.\n它通常是嚴重損壞的,也有可能有附魔.\n\n鐵胸甲會在12.2%的要塞祭壇的箱子裡以及26.0%的村莊鐵匠鋪的箱子裡以1份為一組的形式出現.\n金胸甲會在19.2%的下界要塞的箱子裡以1份為一組的形式出現.\n附魔的鐵胸甲會在13.4%的末地城的箱子裡以1份為一組的形式出現.\n附魔的鑽石胸甲會在13.4%的末地城的箱子裡以1份為一組的形式出現.\n\n盔甲商村民以10-14個綠寶石銷售鐵胸甲作為它們第二層交易之一,\n以16-19個綠寶石銷售附魔鑽石胸甲作為它們第三層交易之一,\n並以11-15個綠寶石銷售鎖鏈胸甲作為它們第四層交易之一.\n皮匠村民以7-12個綠寶石銷售附魔皮革外套作為它們的第二層交易.\n魔咒將會和5-19級的附魔台能獲得的魔咒相同.\n\n胸甲能被放在玩家物品欄盔甲槽的第二格來起作用.\n\n盔甲值:\n每點盔甲值是通過生命值上面的盔甲條以半個盔甲表徵圖表示的.\n每點盔甲值將吸收玩家受到的4%傷害,每點盔甲值的功效是相疊加的.\n不同材料和盔甲的搭配將給予不同的程度的防禦.\n\n以下表格顯示了胸甲所給予的盔甲值.\n皮革   1.5個盔甲表徵圖\n金     2.5個盔甲表徵圖\n鎖鏈   2.5個盔甲表徵圖\n鐵       3個盔甲表徵圖\n鑽石     4個盔甲表徵圖\n\n耐久度:\n來自任何盔甲會抵擋的傷害源的攻擊都將移除所有所穿盔甲1點耐久值.\n來自盔甲所不保護的傷害(如摔落傷害和溺水)將不會使盔甲受損,即使它的魔咒保護那種類的傷害.\n\n以下的表格顯示了胸甲所能承受的打擊數.\n皮革    91\n金      113\n鎖鏈/鐵 241\n鑽石    529\n\n胸甲能通過在鐵砧使用合成它的材料(皮革、金錠、鐵錠或鑽石)來修復.\n鎖鏈胸甲能用鐵錠以此方法來修復.它們也可以通過與另一個相同材料的胸甲合成來修復.\n\n胸甲可以得到以下魔咒：\n火焰保護[注1]\n彈射物保護[注1]\n爆炸保護[注1]\n保護[注1]\n耐久\n荊棘\n經驗修補[注2]\n綁定詛咒[注2]\n消失詛咒[注2]\n[注1]焰保護、爆炸保護、彈射物保護和保護是互斥的.\n[注2]只能通過使用附魔書和鐵砧或在末地城箱子找附魔胸甲獲取.\n\n數據值\n物品        ID名稱:        數字ID\n皮革外套    leather_chestplate:299\n鎖鏈胸甲    chainmail_chestplate:303\n鐵胸甲      iron_chestplate:307\n鑽石胸甲    diamond_chestplate:311\n金胸甲      golden_chestplate:315"
    },
    {
      "file_name": "xiongjia_2.gif",
      "name": "皮革外套 金胸甲 鎖鏈胸甲 鐵胸甲 鑽石胸甲",
      "material": "損壞的 皮革外套 或金胸甲\n或鎖鏈胸甲 或鐵胸甲 或鑽石胸甲",
      "use": "2個胸甲的耐久度加在一起,再加額外的5%耐久度",
      "detail": "胸甲(Chestplates)為包裹着玩家上身的盔甲.\n\n胸甲一共有五種——皮革外套、鎖鏈胸甲、鐵胸甲、鑽石胸甲以及金胸甲.\n\n如果殭屍、殭屍豬人或骷髏穿著胸甲,在它們死亡時有8.5%的幾率(搶奪I為9.5%,搶奪II為10.5%,搶奪III為11.5%)掉落胸甲.\n它通常是嚴重損壞的,也有可能有附魔.\n\n鐵胸甲會在12.2%的要塞祭壇的箱子裡以及26.0%的村莊鐵匠鋪的箱子裡以1份為一組的形式出現.\n金胸甲會在19.2%的下界要塞的箱子裡以1份為一組的形式出現.\n附魔的鐵胸甲會在13.4%的末地城的箱子裡以1份為一組的形式出現.\n附魔的鑽石胸甲會在13.4%的末地城的箱子裡以1份為一組的形式出現.\n\n盔甲商村民以10-14個綠寶石銷售鐵胸甲作為它們第二層交易之一,\n以16-19個綠寶石銷售附魔鑽石胸甲作為它們第三層交易之一,\n並以11-15個綠寶石銷售鎖鏈胸甲作為它們第四層交易之一.\n皮匠村民以7-12個綠寶石銷售附魔皮革外套作為它們的第二層交易.\n魔咒將會和5-19級的附魔台能獲得的魔咒相同.\n\n胸甲能被放在玩家物品欄盔甲槽的第二格來起作用.\n\n盔甲值:\n每點盔甲值是通過生命值上面的盔甲條以半個盔甲表徵圖表示的.\n每點盔甲值將吸收玩家受到的4%傷害,每點盔甲值的功效是相疊加的.\n不同材料和盔甲的搭配將給予不同的程度的防禦.\n\n以下表格顯示了胸甲所給予的盔甲值.\n皮革   1.5個盔甲表徵圖\n金     2.5個盔甲表徵圖\n鎖鏈   2.5個盔甲表徵圖\n鐵       3個盔甲表徵圖\n鑽石     4個盔甲表徵圖\n\n耐久度:\n來自任何盔甲會抵擋的傷害源的攻擊都將移除所有所穿盔甲1點耐久值.\n來自盔甲所不保護的傷害(如摔落傷害和溺水)將不會使盔甲受損,即使它的魔咒保護那種類的傷害.\n\n以下的表格顯示了胸甲所能承受的打擊數.\n皮革    91\n金      113\n鎖鏈/鐵 241\n鑽石    529\n\n胸甲能通過在鐵砧使用合成它的材料(皮革、金錠、鐵錠或鑽石)來修復.\n鎖鏈胸甲能用鐵錠以此方法來修復.它們也可以通過與另一個相同材料的胸甲合成來修復.\n\n胸甲可以得到以下魔咒：\n火焰保護[注1]\n彈射物保護[注1]\n爆炸保護[注1]\n保護[注1]\n耐久\n荊棘\n經驗修補[注2]\n綁定詛咒[注2]\n消失詛咒[注2]\n[注1]焰保護、爆炸保護、彈射物保護和保護是互斥的.\n[注2]只能通過使用附魔書和鐵砧或在末地城箱子找附魔胸甲獲取.\n\n數據值\n物品        ID名稱:        數字ID\n皮革外套    leather_chestplate:299\n鎖鏈胸甲    chainmail_chestplate:303\n鐵胸甲      iron_chestplate:307\n鑽石胸甲    diamond_chestplate:311\n金胸甲      golden_chestplate:315"
    },
    {
      "file_name": "xuezhi.gif",
      "name": "皮革靴子 金靴子 鐵靴子 鑽石靴子",
      "material": "皮革 或金錠 或鐵錠 或鑽石",
      "use": "包裹着玩家腳部的盔甲",
      "detail": "靴子(Boots)為包裹着玩家腳部的盔甲.\n\n靴子一共有五種——皮革靴子、鎖鏈靴子、鐵靴子、鑽石靴子以及金靴子.\n\n如果殭屍、殭屍豬人或骷髏穿著靴子,在它們死亡時有8.5%的幾率(搶奪I為9.5%,搶奪II為10.5%,搶奪III為11.5%)掉落靴子.\n它通常是嚴重損壞的,也有可能有附魔.\n\n鐵靴子會在12.2%的要塞祭壇的箱子裡以及26.0%的村莊鐵匠鋪的箱子裡以1份為一組的形式出現.\n附魔的鐵靴子會在13.4%的末地城的箱子裡以1份為一組的形式出現.\n附魔的鑽石靴子會在13.4%的末地城的箱子裡以1份為一組的形式出現.\n\n盔甲商村民以5-7個綠寶石銷售鎖鏈靴子作為它們第四層交易之一.\n\n釣魚時靴子可作為垃圾被釣上來.\n\n靴子能被放在玩家物品欄盔甲槽的第四格來起作用.\n\n盔甲值\n每點盔甲值是通過生命值上面的盔甲條以半個盔甲表徵圖表示的.\n每點盔甲值將吸收玩家受到的4%傷害,每點盔甲值的功效是相疊加的.\n不同材料和盔甲的搭配將給予不同的程度的防禦.\n\n以下表格顯示了靴子所給予的盔甲值.\n皮革   0.5個盔甲表徵圖\n金     0.5個盔甲表徵圖\n鎖鏈   0.5個盔甲表徵圖\n鐵       1個盔甲表徵圖\n鑽石   1.5個盔甲表徵圖\n\n耐久度\n來自任何盔甲會抵擋的傷害源的攻擊都將移除所有所穿盔甲1點耐久值.\n來自盔甲所不保護的傷害(如摔落傷害和溺水)將不會使盔甲受損,即使它的魔咒保護那種類的傷害.\n以下的表格顯示了靴子所能承受的打擊數.\n皮革    66\n金      92\n鎖鏈/鐵 196\n鑽石    430\n\n靴子能通過在鐵砧使用合成它的材料(皮革、金錠、鐵錠或鑽石)來修復.鎖鏈靴子能用鐵錠以此方法來修復.\n它們也可以通過與另一對相同材料的靴子合成來修復.\n\n靴子可以得到以下魔咒：\n深海探索者\n火焰保護[注1]\n彈射物保護[注1]\n爆炸保護[注1]\n保護[注1]\n摔落保護\n耐久\n荊棘[注2]\n冰霜行者[注3]\n經驗修補[注3]\n綁定詛咒[注3]\n消失詛咒[注3]\n[注1]火焰保護、爆炸保護、彈射物保護和保護是互斥的.\n[注2]只能通過使用附魔書和鐵砧獲取.\n[注3]只能通過使用附魔書和鐵砧或在末地城箱子找附魔靴子獲取.\n\n數據值\n物品       ID名稱:     數字ID\n皮革靴子   leather_boots:301\n鎖鏈靴子   chainmail_boots:305\n鐵靴子     iron_boots:309\n鑽石靴子   diamond_boots:313\n金靴子     golden_boots:317"
    },
    {
      "file_name": "xuezhi_2.gif",
      "name": "皮革靴子 金靴子 鐵靴子 鑽石靴子",
      "material": "損壞的 皮革靴子 或金靴子 或鎖鏈靴子 或鐵靴子 或鑽石靴子",
      "use": "雙靴子的耐久度加在一起,再加額外的5%耐久度",
      "detail": "靴子(Boots)為包裹着玩家腳部的盔甲.\n\n靴子一共有五種——皮革靴子、鎖鏈靴子、鐵靴子、鑽石靴子以及金靴子.\n\n如果殭屍、殭屍豬人或骷髏穿著靴子,在它們死亡時有8.5%的幾率(搶奪I為9.5%,搶奪II為10.5%,搶奪III為11.5%)掉落靴子.\n它通常是嚴重損壞的,也有可能有附魔.\n\n鐵靴子會在12.2%的要塞祭壇的箱子裡以及26.0%的村莊鐵匠鋪的箱子裡以1份為一組的形式出現.\n附魔的鐵靴子會在13.4%的末地城的箱子裡以1份為一組的形式出現.\n附魔的鑽石靴子會在13.4%的末地城的箱子裡以1份為一組的形式出現.\n\n盔甲商村民以5-7個綠寶石銷售鎖鏈靴子作為它們第四層交易之一.\n\n釣魚時靴子可作為垃圾被釣上來.\n\n靴子能被放在玩家物品欄盔甲槽的第四格來起作用.\n\n盔甲值\n每點盔甲值是通過生命值上面的盔甲條以半個盔甲表徵圖表示的.\n每點盔甲值將吸收玩家受到的4%傷害,每點盔甲值的功效是相疊加的.\n不同材料和盔甲的搭配將給予不同的程度的防禦.\n\n以下表格顯示了靴子所給予的盔甲值.\n皮革   0.5個盔甲表徵圖\n金     0.5個盔甲表徵圖\n鎖鏈   0.5個盔甲表徵圖\n鐵       1個盔甲表徵圖\n鑽石   1.5個盔甲表徵圖\n\n耐久度\n來自任何盔甲會抵擋的傷害源的攻擊都將移除所有所穿盔甲1點耐久值.\n來自盔甲所不保護的傷害(如摔落傷害和溺水)將不會使盔甲受損,即使它的魔咒保護那種類的傷害.\n以下的表格顯示了靴子所能承受的打擊數.\n皮革    66\n金      92\n鎖鏈/鐵 196\n鑽石    430\n\n靴子能通過在鐵砧使用合成它的材料(皮革、金錠、鐵錠或鑽石)來修復.鎖鏈靴子能用鐵錠以此方法來修復.\n它們也可以通過與另一對相同材料的靴子合成來修復.\n\n靴子可以得到以下魔咒：\n深海探索者\n火焰保護[注1]\n彈射物保護[注1]\n爆炸保護[注1]\n保護[注1]\n摔落保護\n耐久\n荊棘[注2]\n冰霜行者[注3]\n經驗修補[注3]\n綁定詛咒[注3]\n消失詛咒[注3]\n[注1]火焰保護、爆炸保護、彈射物保護和保護是互斥的.\n[注2]只能通過使用附魔書和鐵砧獲取.\n[注3]只能通過使用附魔書和鐵砧或在末地城箱子找附魔靴子獲取.\n\n數據值\n物品       ID名稱:     數字ID\n皮革靴子   leather_boots:301\n鎖鏈靴子   chainmail_boots:305\n鐵靴子     iron_boots:309\n鑽石靴子   diamond_boots:313\n金靴子     golden_boots:317"
    },
    {
      "file_name": "dunpai.gif",
      "name": "盾牌",
      "material": "任何木板 + 鐵錠",
      "use": "盾牌能用來防禦即將到來的攻擊",
      "detail": "盾牌(Shield)是一種用來抵擋傷害的防禦工具.\n\n用途:\n盾牌能用來防禦即將到來的攻擊,使用盾牌會使玩家的速度減至和潛行相同,並會把來自前方能防禦的近戰傷害減少至0和免疫投射物傷害.\n\n當盾牌擋下攻擊,它會減少等同於該攻擊的力量(向下取整)再加1的耐久度.\n一些非傷害效果(例如被火球攻擊而着火)能被盾牌減少傷害,而其它(例如被火焰弓導致着火)則不會減少傷害.\n彈射物的擊退會被免疫,但近戰擊退不會.當近戰攻擊被防禦,攻擊者可能會被稍微擊退.\n\n盾牌能防禦玩家水平方向最多(但不包括)90°的攻擊,換言之,它包括玩家前方几乎整個半圓.\n玩家的垂直方向正常對防禦沒有影響,然而看著正上方或正下方的玩家可能無法防禦任何方向的攻擊.\n同樣地,正上方或正下方的攻擊可能無法被防禦,因為它沒有水平方向.\n\n能被防禦的攻擊包括生物近戰攻擊、箭、火球、彈射物(例如雪球)、荊棘附魔的傷害和一些爆炸,\n例如爬行者爆炸和其它玩家點燃的TNT能被防禦,但玩家自己點燃或被紅石元件點燃的TNT不能.\n\n如果被斧攻擊,盾牌有機會5秒不能使用,盾牌在被選擇後的0.25秒內也不能防禦.\n\n當被箭擊中,箭能從盾牌彈開並擊中其它實體.\n\n與旗幟不同,盾牌不能在煉藥鍋洗掉圖案.\n盾牌的分辨率是旗幟的一半,所以新盾牌上的圖案看起來有些差別.\n在遊戲檔案裡,圖案的材質能在一個叫entity/shield的分開目錄被找到.\n\n有圖案的盾牌也能通過使用和旗幟相同的命令來獲得,除了banner要用shield來代替\n\n盾牌能獲得以下魔咒,但只能通過鐵砧獲得.\n耐久\n經驗修補\n消失詛咒\n\n盾牌並不能抵擋守衛者的激光射線.\n如果盾牌減少玩家的傷害到小於0.5顆紅心,玩家仍會受到傷害並被擊退,但是生命值不會有任何視覺上的變化,也不會有受到傷害的聲音；\n直至這些傷害加起來大於0.5顆紅心,玩家生命值視覺上的變化和受傷的聲音才會再次出現.\n\n數據值\nDEC: 442 HEX: 1BA BIN: 110111010\n名稱\nshield\n耐久度\n337"
    },
    {
      "file_name": "dunpai_2.gif",
      "name": "盾牌",
      "material": "損壞的盾牌",
      "use": "2個盾牌的耐久度加在一起,再加額外的5%耐久度.維修的盾牌沒有圖案",
      "detail": "盾牌(Shield)是一種用來抵擋傷害的防禦工具.\n\n用途:\n盾牌能用來防禦即將到來的攻擊,使用盾牌會使玩家的速度減至和潛行相同,並會把來自前方能防禦的近戰傷害減少至0和免疫投射物傷害.\n\n當盾牌擋下攻擊,它會減少等同於該攻擊的力量(向下取整)再加1的耐久度.\n一些非傷害效果(例如被火球攻擊而着火)能被盾牌減少傷害,而其它(例如被火焰弓導致着火)則不會減少傷害.\n彈射物的擊退會被免疫,但近戰擊退不會.當近戰攻擊被防禦,攻擊者可能會被稍微擊退.\n\n盾牌能防禦玩家水平方向最多(但不包括)90°的攻擊,換言之,它包括玩家前方几乎整個半圓.\n玩家的垂直方向正常對防禦沒有影響,然而看著正上方或正下方的玩家可能無法防禦任何方向的攻擊.\n同樣地,正上方或正下方的攻擊可能無法被防禦,因為它沒有水平方向.\n\n能被防禦的攻擊包括生物近戰攻擊、箭、火球、彈射物(例如雪球)、荊棘附魔的傷害和一些爆炸,\n例如爬行者爆炸和其它玩家點燃的TNT能被防禦,但玩家自己點燃或被紅石元件點燃的TNT不能.\n\n如果被斧攻擊,盾牌有機會5秒不能使用,盾牌在被選擇後的0.25秒內也不能防禦.\n\n當被箭擊中,箭能從盾牌彈開並擊中其它實體.\n\n與旗幟不同,盾牌不能在煉藥鍋洗掉圖案.\n盾牌的分辨率是旗幟的一半,所以新盾牌上的圖案看起來有些差別.\n在遊戲檔案裡,圖案的材質能在一個叫entity/shield的分開目錄被找到.\n\n有圖案的盾牌也能通過使用和旗幟相同的命令來獲得,除了banner要用shield來代替\n\n盾牌能獲得以下魔咒,但只能通過鐵砧獲得.\n耐久\n經驗修補\n消失詛咒\n\n盾牌並不能抵擋守衛者的激光射線.\n如果盾牌減少玩家的傷害到小於0.5顆紅心,玩家仍會受到傷害並被擊退,但是生命值不會有任何視覺上的變化,也不會有受到傷害的聲音；\n直至這些傷害加起來大於0.5顆紅心,玩家生命值視覺上的變化和受傷的聲音才會再次出現.\n\n數據值\nDEC: 442 HEX: 1BA BIN: 110111010\n名稱\nshield\n耐久度\n337"
    },
    {
      "file_name": "duiyingdedunpai.gif",
      "name": "有圖案的盾牌",
      "material": "盾牌 + 對應的旗幟",
      "use": "將旗幟的圖案印在盾牌上",
      "detail": "旗幟會被消耗\n被印上圖案的盾牌必須是無任何圖案的\n恢復盾牌到滿耐久度"
    },
    {
      "file_name": "pigemakai.png",
      "name": "皮革馬鎧",
      "material": "皮革",
      "use": "皮革合成配方僅攜帶版",
      "detail": "馬鎧(Horse armor)是裝備給馬的一種特殊盔甲.\n\n鐵馬鎧和金馬鎧和鑽石馬鎧會在 要塞祭壇,下界要塞,沙漠神殿,村莊鐵匠鋪,地牢,末地城,叢林神廟的箱子裡有幾率出現,皆以1份為一組的形式出現.\n\n馬穿著不同馬鎧會有逐漸提升的防禦力：\n材質    盔甲值\n皮革  1.5個盔甲表徵圖[僅限攜帶版]\n鐵    2.5個盔甲表徵圖\n金    3.5個盔甲表徵圖\n鑽石  5.5個盔甲表徵圖\n\n在攜帶版中有皮革馬鎧,它像普通的皮革盔甲一樣能被染色.\n\n數據值\nID\n物品:ID名稱(PC):ID名稱(PE):數字ID\n皮革馬鎧:不可用:horsearmorleather:416[僅限攜帶版]\n鐵馬鎧:iron_horse_armor;horsearmoriron:417\n金馬鎧:golden_horse_armor:horsearmorgold:418\n鑽石馬鎧:diamond_horse_armor:horsearmordiamond:419"
    },
    {
      "file_name": "huoyangdang.gif",
      "name": "火焰彈",
      "material": "烈焰粉 + 煤炭或木炭 +火藥",
      "use": "使用後可以點燃火焰的物品\n可以作為發射器的填充彈葯",
      "detail": "火焰彈(Fire Charge)是一種使用後可以點燃火焰的物品.\n\n用途:\n發射火焰彈\n火焰彈可以作為發射器的填充彈葯,也可以作為打火石的低效替代品.\n\n當使用火焰彈時,就會立即點燃火焰,與打火石相似.\n火焰彈在此過程中被消耗.\n\n但與打火石不同的地方在於,火焰彈既不能激活TNT,也不能引爆爬行者.\n當火焰彈被發射器發射的時候,它與烈焰人發出的火球一樣直線飛行(目標是隨機的).\n當它擊中方塊時,便會點燃火焰.\n它沒有爆炸效果.當它擊中玩家時,總共會造成2.5顆紅心傷害(1.5顆為擊中造成的傷害,1顆為火焰造成的傷害).\n\n可以合成煙火之星\n\n發射的火焰彈有着能定義它各種屬性的實體數據.\n它們的實體ID是SmallFireball,和烈焰人火球是相同的實體.\n\n你知道嗎?\n火焰彈與烈焰人和惡魂的火球共用相同的材質.\nFireball實體,也被成為惡魂火球,具有與SmallFireball實體相同的材質.\n發射的火球實體對其它實體造成的傷害是確切的火焰傷害,你會發現當你在具有抗火的藥水效果的時候被火球擊中,你將不會受到傷害.\n當裝有火焰彈的發射器前方有透明方塊時,會在該方塊另一側誘發火焰.\n在火焰彈未觸及方塊或實體時會一直飛行,甚至飛出到玩家的渲染距離.\n在發射器發射火焰彈後,火焰彈會從靜止加速,樣子看起來並不像是被發射的樣子,而是掉落的樣子.\n然而烈焰人發射的火球會以固定的速度飛到目標那裡.\n\n內部ID\n13\n實體ID\nPC: small_fireball\nPE: smallfireball\n\n數據值\nDEC: 385 HEX: 181 BIN: 110000001\n名稱\nPC: fire_charge\nPE: fireball"
    }
  ]
}
