{
    "category": "其他的生物",
    "blocks": [
  {
            "file_name": "shengwu_jixiangwu.png",
            "name": "吉祥物",
            "material": " ",
            "use": "教育版生物",
            "detail": "吉祥物(Agent)是一個教育版獨有生物.\n\n內部ID\n56\n實體ID\nlearn_to_code_mascot"
        },{
            "file_name": "shengwu_npc.gif",
            "name": "NPC",
            "material": " ",
            "use": "教育版生物",
            "detail": "NPC是一種擁有與村民相似的生物模型.\n\n他們是教育版的獨有生物. \n\n如果試圖與NPC交互(對著NPC並長按),\n會出現一個'對話'按鈕.\n\nNPC不會自然生成,\n然而,它們在創造模式物品欄中有對應的刷怪蛋.\n\nNPC也可以用命令(/summon npc ~ ~ ~)生成.\nNPC生成時擁有獨特的名稱: §eNPC.\n\n你知道嗎?\nNPC擁有村民的音效.\n\nNPC的名稱不能使用命名牌改變,\n因此只能使用/ability命令編輯NPC的名字.\n\nNPC是無敵的,\n即使玩家在創造模式攻擊他們也不會受到傷害.\n他們只能被命令和藥水殺死或者掉落虛空而死.\n\nNPC無法自己移動,\n所以他們只能使用命令、活塞、粘性活塞、載具(船與礦車)或被水流推動來進行移動.\n\n內部ID\n51\n實體ID\nnpc"
        },{
            "file_name": "shengwu_juren.png",
            "name": "巨人",
            "material": " ",
            "use": "身高12米的殭屍\n未使用的生物",
            "detail": "巨人(Giant)是像殭屍一樣的巨型生物.\n\n除了裝飾,它們現在沒有其它用途.\n\n巨人在死亡時掉落5經驗.\n\n巨人的生成需要亮度等級在8以下且在11以上.\n這使得它們不能自然生成或由刷怪箱生成.\n\n可以使用/summon giant這樣的命令來召喚巨人.\n\n巨人身高近12米,它們使用放大了6倍的殭屍模型.\n\n目前巨人沒有AI,因此他們在生成時總會面朝南,永遠不會移動、轉頭、追逐玩家.\n\n即使玩家攻擊它,它也只會像其它生物一樣被擊退,不會有任何其它反應.\n\n它們的視角方向只能通過命令修改.\n\n巨人在Xbox 360版和Xbox One版中真實存在,\n但是它們的刷怪蛋需要修改才能放到玩家的物品欄裡.\n\n你知道嗎?\n通過修改,玩家可以使一個刷怪箱生成一個其他種類的實體,並設定其騎着巨人出現.這樣可以繞過生成條件限制獲取巨人.\n\n如果你對巨人使用命名牌,它們的名字會顯示在它們的頭裡.\n\n改變殭屍的模型也會相應地使巨人的模型發生改變.\n\nNotch 禁止了巨人的生成是因為'它們太強大了'.\n但他沒有完全移除巨人是因為'它們實在是太酷炫了'.\n\n坐著礦車的巨人會懸浮在礦車上面.\n\n騎着巨人的生物會被完全隱藏在巨人的頭中,\n除非它是超巨型史萊姆、超巨型岩漿怪、惡魂或者末影龍.\n\n巨人會被傷害藥水傷害,儘管它們使用的是亡靈生物的模型.\n\n巨人擁有玩家的傷害音效.\n\n巨人的頭和軀幹不在它的碰撞箱範圍內,\n這意味着攻擊巨人的這些部位並不會傷害它們.\n\n鐵傀儡與巨人敵對.\n\n巨人有與其相關聯的實體數據,它包含了生物的不同屬性.\n巨人的實體ID是 giant.\n\n內部ID\n53\n實體ID\ngiant"
        },{
            "file_name": "shengwu_shashoutu.png",
            "name": "殺手兔",
            "material": " ",
            "use": "有着血紅色的眼睛\n未使用的生物",
            "detail": "殺手兔是兔子的罕見變種\n\n它對所有玩家都保持攻擊性.\n\n它的毛色是白色的,\n而且有着血紅色的眼睛,\n且跟普通的兔子豎直的眼睛不同,\n殺手兔的眼睛是水平的.\n\n它們只能通過使用/summon命令生成.\n\n如果殺手兔在16個方塊半徑內發現玩家,它會迅速跳向玩家,速度遠超普通的兔子.\n\n它和蜘蛛的移動形式有些相似.\n\n一旦它到達近處就會衝向玩家造成相當可觀的傷害.\n\n如果玩家攻擊殺手兔,它會跑開一段時間,不久又會重新衝向玩家.\n\n殺手兔也免疫荊棘附魔.\n\n如果它尋找不到玩家,殺手兔會積極地搜尋和攻擊狼,不管馴服了還是未被馴服的.\n\n那些狼會反過來攻擊殺手兔,釀成一場惡鬥.\n\n在和平模式,殺手兔是攻擊性的,但它不會消失.它同樣也會攻擊狼,不管馴服了還是未被馴服的.\n\n殺手兔可以通過命令/summon rabbit ~ ~ ~ {RabbitType:99}召喚出來.\n類似的,使用/summon rabbit ~ ~ ~ {RabbitType:99,Age:<負數>}可以召喚一隻幼年殺手兔.\n\n兔子的實體標籤包含許多生物的屬性.它的實體ID是rabbit.\n\n使用/summon命令生成兔子時,NBT格式中RabbitType將決定生成哪種兔子.\n例如,殺手兔可以通過命令/summon rabbit ~ ~ ~ {RabbitType:99}召喚出來.\n類似的,使用/summon rabbit ~ ~ ~ {RabbitType:99,Age:<負數>}可以召喚一隻幼年殺手兔.\n\n殺手兔的RabbitType ID 是99"
        },{
            "file_name": "shengwu_jiangshima.png",
            "name": "殭屍馬",
            "material": " ",
            "use": "馬的非自然變種\n未使用的生物",
            "detail": "殭屍馬(Zombie Horse)\n\n未使用的生物,\n它是馬的變種,不能自然生成.\n\n似乎是相對應的殭屍版本的馬.\n\n像殭屍那樣,\n殭屍馬有着綠色的皮膚,\n它們的眼睛也是完全黑色的.\n\n殭屍馬無法被正常馴服.\n\n殭屍馬不能被繁殖或通過繁殖生成.\n\n雖然殭屍馬不能以常規方法裝配箱子,\n但是若用命令給它強行裝備箱子,\n箱子會顯示出一種與其在驢或騾身上不同的、像皮包一樣的材質.\n\n但是當你嘗試騎乘這匹馬或者在馬上打開物品欄時,\n遊戲可能會崩潰.\n\n內部ID\nPC:29\nPE:27\n實體ID\nzombie_horse"
        },{
            "file_name": "shengwu_huangshushi.png",
            "name": "幻術師",
            "material": " ",
            "use": "能召喚影分身\n未使用的生物",
            "detail": "幻術師(Illusioner)是一種尚未使用的敵對生物.\n\n它是三種刌cǔn民之一,其他兩種是衛道士和喚魔者\n\n幻術師目前只能通過/summon illusion_illager命令生成.\n\n當被玩家殺死時,\n幻術師有8.5%的幾率掉落它們的弓.\n\n如果使用帶有搶奪附魔的武器殺死幻術師,\n弓的掉落幾率為\n搶奪I的9.5%、\n搶奪II的10.5%\n搶奪III的11.5%.\n\n它們掉落的弓通常有一定程度的破損.\n\n行為\n幻術師會攻擊12個方塊內的玩家、村民和鐵傀儡.\n它可以使用咒語和弓來攻擊.\n\n幻術師有兩種咒語:\n一種能使攻擊對象失明,\n另一種能召喚分身並使本體隱形.\n\n造成失明:\n只有在區域難度是3或更高時,\n幻術師才會使用失明咒語.\n\n當幻術師遇到一個新的攻擊對象,\n會使其受到持續20秒的失明效果.\n它會舉起手臂來發起攻擊並且產生黑色煙霧.\n\n幻術師不會在同一個攻擊對象身上多次施放這個咒語,\n除非它先將注意力轉移到其他攻擊對象上,\n再轉移回原來的攻擊對象.\n\n這個咒語會重置幻術師的咒語冷卻時間到1秒,\n以及重置失明咒語的冷卻時間到9秒.\n\n生成分身:\n在幻術師參與到戰鬥之中時,\n它會先得到持續60秒的隱身效果,\n並且每當隱身效果快結束時會刷新效果.\n它會舉起手臂來發起攻擊並且產生藍色煙霧.\n\n當幻術師隱身時,無論通過什麼方式,它都會召喚四個假的分身.\n\n這些來自于隱身本體的分身會輕微搖晃,只有幻術師受到攻擊它們才會消失.\n\n這些分身面對的方向與本體相同,而且有時候只要本體稍微移動了一步,分身就像是穿過了牆壁、天花板和樓梯.\n\n每當本體使用弓攻擊時,它們會使用射擊的動畫,雖然只有本體才能射擊和造成傷害.\n\n當幻術師本體受到傷害,他的幻影會迅速返回本體位置,又迅速到達新的位置,發出攻擊信號.\n\n如果一個隱身的幻術師得到發光效果,所有的分身都會發光,而本體仍然處于隱身狀態.\n\n一旦幻術師的隱身效果結束後,分身會消失.\n\n這個咒語會重置幻術師的咒語冷卻時間到1秒,以及重置隱身咒語的冷卻時間到17秒.\n\n你知道嗎?\n當通過命令使幻術師手中沒有任何弓時,幻術師將無法攻擊.\n\n幻術師可以從不同方向持弓,這與骷髏不同.\n\n幻術師擁有與其相關聯的實體數據值,\n它包含了該生物的各種屬性.\n幻術師的實體ID為illusion_illager.\n\n內部ID\n37\n實體ID\nillusion_illager"
        },{
            "file_name": "shengwu_yiyichushengwu.gif",
            "name": "野獸小子 黑史蒂夫 史蒂夫 拉娜 人類",
            "material": " ",
            "use": "已移除的生物",
            "detail": "野獸小子 黑史蒂夫 史蒂夫 拉娜 人類\n\n已移除的生物\n\n不再存在於當前版本的遊戲中.\n\n\n野獸小子、黑史蒂夫、史蒂夫、拉娜是Indev時期裡遊戲原始人類生物的測試.\n\n它們的作者是前Minecraft美工'Hayden Scott-Baron'.\n\n自Hayden Scott-Baron在2010年初離開開發團隊後,\n它們就從遊戲中移除了.\n\n這些生物沒有動畫,只有相同的滑行動畫.\n\n死後,野獸小子、黑史蒂夫和史蒂夫會掉落1-2根綫、1-2根羽毛、1-2個火藥和0-1個打火石,\n\n拉娜會掉落0-2個蘋果、0-5朵玫瑰和0-2根羽毛.\n\n野獸小子、黑史蒂夫、史蒂夫生命值為2.5紅心,拉娜為6.5紅心.\n\n人類\n'人類'是使用預設皮膚的翻版,\n他們是敵對生物.\n\n在Classic中,人類可以通過按G鍵來生成.\n奇怪的是,他們並沒有使用普通玩家的攻擊動畫；\n他們只是像殭屍一樣跑向玩家.\n\n其他情況下,人類只會毫無目的的漫遊,不停地繞無規則的圈,晃動他們的手臂和頭,偶爾跳躍.\n\n他們不能移動或破壞方塊,也不會被流體所影響.\n\n在檔案中把你的皮膚換成其他材質也不會改變人類的皮膚."
        }
        
 ]
}